10:56:16 INFO  : Registering command handlers for SDK TCF services
10:56:18 INFO  : Launching XSCT server: xsct -n -interactive /home/ciro/Documents/Universidad/Semestre9/DDA/microprocesador/SOC/SOC.sdk/temp_xsdb_launch_script.tcl
10:56:23 INFO  : XSCT server has started successfully.
10:56:27 INFO  : Successfully done setting XSCT server connection channel  
10:56:27 INFO  : Successfully done setting SDK workspace  
10:56:27 INFO  : Processing command line option -hwspec /home/ciro/Documents/Universidad/Semestre9/DDA/microprocesador/SOC/SOC.sdk/design_1_wrapper.hdf.
10:59:01 INFO  : Registering command handlers for SDK TCF services
10:59:02 INFO  : Launching XSCT server: xsct -n -interactive /home/ciro/Documents/Universidad/Semestre9/DDA/microprocesador/SOC/SOC.sdk/temp_xsdb_launch_script.tcl
10:59:05 INFO  : XSCT server has started successfully.
10:59:06 INFO  : Successfully done setting XSCT server connection channel  
10:59:06 INFO  : Successfully done setting SDK workspace  
10:59:06 INFO  : Processing command line option -hwspec /home/ciro/Documents/Universidad/Semestre9/DDA/microprocesador/SOC/SOC.sdk/design_1_wrapper.hdf.
10:59:06 INFO  : Checking for hwspec changes in the project design_1_wrapper_hw_platform_0.
10:59:48 INFO  : 'targets -set -filter {jtag_cable_name =~ "Digilent Zybo 210279786951A" && level==0} -index 1' command is executed.
10:59:48 INFO  : 'fpga -state' command is executed.
10:59:54 INFO  : Connected to target on host '127.0.0.1' and port '3121'.
10:59:54 INFO  : 'targets -set -filter {jtag_cable_name =~ "Digilent Zybo 210279786951A" && level==0} -index 1' command is executed.
10:59:56 INFO  : FPGA configured successfully with bitstream "/home/ciro/Documents/Universidad/Semestre9/DDA/microprocesador/SOC/SOC.sdk/design_1_wrapper_hw_platform_0/design_1_wrapper.bit"
11:00:01 INFO  : 'targets -set -filter {jtag_cable_name =~ "Digilent Zybo 210279786951A" && level==0} -index 1' command is executed.
11:00:01 INFO  : 'fpga -state' command is executed.
11:00:01 INFO  : Connected to target on host '127.0.0.1' and port '3121'.
11:00:01 INFO  : Jtag cable 'Digilent Zybo 210279786951A' is selected.
11:00:01 INFO  : 'jtag frequency' command is executed.
11:00:01 INFO  : Sourcing of '/home/ciro/Documents/Universidad/Semestre9/DDA/microprocesador/SOC/SOC.sdk/design_1_wrapper_hw_platform_0/ps7_init.tcl' is done.
11:00:01 INFO  : Context for 'APU' is selected.
11:00:01 INFO  : Hardware design information is loaded from '/home/ciro/Documents/Universidad/Semestre9/DDA/microprocesador/SOC/SOC.sdk/design_1_wrapper_hw_platform_0/system.hdf'.
11:00:01 INFO  : 'configparams force-mem-access 1' command is executed.
11:00:01 INFO  : Context for 'APU' is selected.
11:00:01 INFO  : 'stop' command is executed.
11:00:02 INFO  : 'ps7_init' command is executed.
11:00:02 INFO  : 'ps7_post_config' command is executed.
11:00:02 INFO  : Context for processor 'ps7_cortexa9_0' is selected.
11:00:02 INFO  : Processor reset is completed for 'ps7_cortexa9_0'.
11:00:02 INFO  : Context for processor 'ps7_cortexa9_0' is selected.
11:00:02 INFO  : The application '/home/ciro/Documents/Universidad/Semestre9/DDA/microprocesador/SOC/SOC.sdk/hello/Debug/hello.elf' is downloaded to processor 'ps7_cortexa9_0'.
11:00:02 INFO  : 'configparams force-mem-access 0' command is executed.
11:00:02 INFO  : ----------------XSDB Script----------------
connect -url tcp:127.0.0.1:3121
source /home/ciro/Documents/Universidad/Semestre9/DDA/microprocesador/SOC/SOC.sdk/design_1_wrapper_hw_platform_0/ps7_init.tcl
targets -set -nocase -filter {name =~"APU*" && jtag_cable_name =~ "Digilent Zybo 210279786951A"} -index 0
loadhw -hw /home/ciro/Documents/Universidad/Semestre9/DDA/microprocesador/SOC/SOC.sdk/design_1_wrapper_hw_platform_0/system.hdf -mem-ranges [list {0x40000000 0xbfffffff}]
configparams force-mem-access 1
targets -set -nocase -filter {name =~"APU*" && jtag_cable_name =~ "Digilent Zybo 210279786951A"} -index 0
stop
ps7_init
ps7_post_config
targets -set -nocase -filter {name =~ "ARM*#0" && jtag_cable_name =~ "Digilent Zybo 210279786951A"} -index 0
rst -processor
targets -set -nocase -filter {name =~ "ARM*#0" && jtag_cable_name =~ "Digilent Zybo 210279786951A"} -index 0
dow /home/ciro/Documents/Universidad/Semestre9/DDA/microprocesador/SOC/SOC.sdk/hello/Debug/hello.elf
configparams force-mem-access 0
----------------End of Script----------------

11:00:02 INFO  : Context for processor 'ps7_cortexa9_0' is selected.
11:00:02 INFO  : 'con' command is executed.
11:00:02 INFO  : ----------------XSDB Script (After Launch)----------------
targets -set -nocase -filter {name =~ "ARM*#0" && jtag_cable_name =~ "Digilent Zybo 210279786951A"} -index 0
con
----------------End of Script----------------

11:00:02 INFO  : Disconnected from the channel tcfchan#1.
11:01:02 INFO  : 'targets -set -filter {jtag_cable_name =~ "Digilent Zybo 210279786951A" && level==0} -index 1' command is executed.
11:01:02 INFO  : 'fpga -state' command is executed.
11:01:02 INFO  : Connected to target on host '127.0.0.1' and port '3121'.
11:01:02 INFO  : Jtag cable 'Digilent Zybo 210279786951A' is selected.
11:01:02 INFO  : 'jtag frequency' command is executed.
11:01:02 INFO  : Sourcing of '/home/ciro/Documents/Universidad/Semestre9/DDA/microprocesador/SOC/SOC.sdk/design_1_wrapper_hw_platform_0/ps7_init.tcl' is done.
11:01:02 INFO  : Context for 'APU' is selected.
11:01:03 INFO  : Hardware design information is loaded from '/home/ciro/Documents/Universidad/Semestre9/DDA/microprocesador/SOC/SOC.sdk/design_1_wrapper_hw_platform_0/system.hdf'.
11:01:03 INFO  : 'configparams force-mem-access 1' command is executed.
11:01:03 INFO  : Context for 'APU' is selected.
11:01:03 INFO  : 'stop' command is executed.
11:01:03 INFO  : 'ps7_init' command is executed.
11:01:03 INFO  : 'ps7_post_config' command is executed.
11:01:03 INFO  : Context for processor 'ps7_cortexa9_0' is selected.
11:01:03 INFO  : Processor reset is completed for 'ps7_cortexa9_0'.
11:01:03 INFO  : Context for processor 'ps7_cortexa9_0' is selected.
11:01:03 INFO  : The application '/home/ciro/Documents/Universidad/Semestre9/DDA/microprocesador/SOC/SOC.sdk/hello/Debug/hello.elf' is downloaded to processor 'ps7_cortexa9_0'.
11:01:03 INFO  : 'configparams force-mem-access 0' command is executed.
11:01:03 INFO  : ----------------XSDB Script----------------
connect -url tcp:127.0.0.1:3121
source /home/ciro/Documents/Universidad/Semestre9/DDA/microprocesador/SOC/SOC.sdk/design_1_wrapper_hw_platform_0/ps7_init.tcl
targets -set -nocase -filter {name =~"APU*" && jtag_cable_name =~ "Digilent Zybo 210279786951A"} -index 0
loadhw -hw /home/ciro/Documents/Universidad/Semestre9/DDA/microprocesador/SOC/SOC.sdk/design_1_wrapper_hw_platform_0/system.hdf -mem-ranges [list {0x40000000 0xbfffffff}]
configparams force-mem-access 1
targets -set -nocase -filter {name =~"APU*" && jtag_cable_name =~ "Digilent Zybo 210279786951A"} -index 0
stop
ps7_init
ps7_post_config
targets -set -nocase -filter {name =~ "ARM*#0" && jtag_cable_name =~ "Digilent Zybo 210279786951A"} -index 0
rst -processor
targets -set -nocase -filter {name =~ "ARM*#0" && jtag_cable_name =~ "Digilent Zybo 210279786951A"} -index 0
dow /home/ciro/Documents/Universidad/Semestre9/DDA/microprocesador/SOC/SOC.sdk/hello/Debug/hello.elf
configparams force-mem-access 0
----------------End of Script----------------

11:01:03 INFO  : Context for processor 'ps7_cortexa9_0' is selected.
11:01:03 INFO  : 'con' command is executed.
11:01:03 INFO  : ----------------XSDB Script (After Launch)----------------
targets -set -nocase -filter {name =~ "ARM*#0" && jtag_cable_name =~ "Digilent Zybo 210279786951A"} -index 0
con
----------------End of Script----------------

11:01:03 INFO  : Disconnected from the channel tcfchan#2.
11:02:00 INFO  : 'targets -set -filter {jtag_cable_name =~ "Digilent Zybo 210279786951A" && level==0} -index 1' command is executed.
11:02:00 INFO  : 'fpga -state' command is executed.
11:02:00 INFO  : Connected to target on host '127.0.0.1' and port '3121'.
11:02:00 INFO  : Jtag cable 'Digilent Zybo 210279786951A' is selected.
11:02:00 INFO  : 'jtag frequency' command is executed.
11:02:00 INFO  : Sourcing of '/home/ciro/Documents/Universidad/Semestre9/DDA/microprocesador/SOC/SOC.sdk/design_1_wrapper_hw_platform_0/ps7_init.tcl' is done.
11:02:00 INFO  : Context for 'APU' is selected.
11:02:00 INFO  : Hardware design information is loaded from '/home/ciro/Documents/Universidad/Semestre9/DDA/microprocesador/SOC/SOC.sdk/design_1_wrapper_hw_platform_0/system.hdf'.
11:02:00 INFO  : 'configparams force-mem-access 1' command is executed.
11:02:00 INFO  : Context for 'APU' is selected.
11:02:00 INFO  : 'stop' command is executed.
11:02:00 INFO  : 'ps7_init' command is executed.
11:02:00 INFO  : 'ps7_post_config' command is executed.
11:02:00 INFO  : Context for processor 'ps7_cortexa9_0' is selected.
11:02:00 INFO  : Processor reset is completed for 'ps7_cortexa9_0'.
11:02:00 INFO  : Context for processor 'ps7_cortexa9_0' is selected.
11:02:01 INFO  : The application '/home/ciro/Documents/Universidad/Semestre9/DDA/microprocesador/SOC/SOC.sdk/hello/Debug/hello.elf' is downloaded to processor 'ps7_cortexa9_0'.
11:02:01 INFO  : 'configparams force-mem-access 0' command is executed.
11:02:01 INFO  : ----------------XSDB Script----------------
connect -url tcp:127.0.0.1:3121
source /home/ciro/Documents/Universidad/Semestre9/DDA/microprocesador/SOC/SOC.sdk/design_1_wrapper_hw_platform_0/ps7_init.tcl
targets -set -nocase -filter {name =~"APU*" && jtag_cable_name =~ "Digilent Zybo 210279786951A"} -index 0
loadhw -hw /home/ciro/Documents/Universidad/Semestre9/DDA/microprocesador/SOC/SOC.sdk/design_1_wrapper_hw_platform_0/system.hdf -mem-ranges [list {0x40000000 0xbfffffff}]
configparams force-mem-access 1
targets -set -nocase -filter {name =~"APU*" && jtag_cable_name =~ "Digilent Zybo 210279786951A"} -index 0
stop
ps7_init
ps7_post_config
targets -set -nocase -filter {name =~ "ARM*#0" && jtag_cable_name =~ "Digilent Zybo 210279786951A"} -index 0
rst -processor
targets -set -nocase -filter {name =~ "ARM*#0" && jtag_cable_name =~ "Digilent Zybo 210279786951A"} -index 0
dow /home/ciro/Documents/Universidad/Semestre9/DDA/microprocesador/SOC/SOC.sdk/hello/Debug/hello.elf
configparams force-mem-access 0
----------------End of Script----------------

11:02:01 INFO  : Context for processor 'ps7_cortexa9_0' is selected.
11:02:01 INFO  : 'con' command is executed.
11:02:01 INFO  : ----------------XSDB Script (After Launch)----------------
targets -set -nocase -filter {name =~ "ARM*#0" && jtag_cable_name =~ "Digilent Zybo 210279786951A"} -index 0
con
----------------End of Script----------------

11:02:01 INFO  : Disconnected from the channel tcfchan#3.
11:04:47 INFO  : 'targets -set -filter {jtag_cable_name =~ "Digilent Zybo 210279786951A" && level==0} -index 1' command is executed.
11:04:47 INFO  : 'fpga -state' command is executed.
11:04:47 INFO  : Connected to target on host '127.0.0.1' and port '3121'.
11:04:47 INFO  : Jtag cable 'Digilent Zybo 210279786951A' is selected.
11:04:47 INFO  : 'jtag frequency' command is executed.
11:04:47 INFO  : Sourcing of '/home/ciro/Documents/Universidad/Semestre9/DDA/microprocesador/SOC/SOC.sdk/design_1_wrapper_hw_platform_0/ps7_init.tcl' is done.
11:04:47 INFO  : Context for 'APU' is selected.
11:04:47 INFO  : Hardware design information is loaded from '/home/ciro/Documents/Universidad/Semestre9/DDA/microprocesador/SOC/SOC.sdk/design_1_wrapper_hw_platform_0/system.hdf'.
11:04:47 INFO  : 'configparams force-mem-access 1' command is executed.
11:04:47 INFO  : Context for 'APU' is selected.
11:04:47 INFO  : 'stop' command is executed.
11:04:48 INFO  : 'ps7_init' command is executed.
11:04:48 INFO  : 'ps7_post_config' command is executed.
11:04:48 INFO  : Context for processor 'ps7_cortexa9_0' is selected.
11:04:48 INFO  : Processor reset is completed for 'ps7_cortexa9_0'.
11:04:48 INFO  : Context for processor 'ps7_cortexa9_0' is selected.
11:04:48 INFO  : The application '/home/ciro/Documents/Universidad/Semestre9/DDA/microprocesador/SOC/SOC.sdk/hello/Debug/hello.elf' is downloaded to processor 'ps7_cortexa9_0'.
11:04:48 INFO  : 'configparams force-mem-access 0' command is executed.
11:04:48 INFO  : ----------------XSDB Script----------------
connect -url tcp:127.0.0.1:3121
source /home/ciro/Documents/Universidad/Semestre9/DDA/microprocesador/SOC/SOC.sdk/design_1_wrapper_hw_platform_0/ps7_init.tcl
targets -set -nocase -filter {name =~"APU*" && jtag_cable_name =~ "Digilent Zybo 210279786951A"} -index 0
loadhw -hw /home/ciro/Documents/Universidad/Semestre9/DDA/microprocesador/SOC/SOC.sdk/design_1_wrapper_hw_platform_0/system.hdf -mem-ranges [list {0x40000000 0xbfffffff}]
configparams force-mem-access 1
targets -set -nocase -filter {name =~"APU*" && jtag_cable_name =~ "Digilent Zybo 210279786951A"} -index 0
stop
ps7_init
ps7_post_config
targets -set -nocase -filter {name =~ "ARM*#0" && jtag_cable_name =~ "Digilent Zybo 210279786951A"} -index 0
rst -processor
targets -set -nocase -filter {name =~ "ARM*#0" && jtag_cable_name =~ "Digilent Zybo 210279786951A"} -index 0
dow /home/ciro/Documents/Universidad/Semestre9/DDA/microprocesador/SOC/SOC.sdk/hello/Debug/hello.elf
configparams force-mem-access 0
----------------End of Script----------------

11:04:48 INFO  : Memory regions updated for context APU
11:04:48 INFO  : Context for processor 'ps7_cortexa9_0' is selected.
11:04:48 INFO  : 'con' command is executed.
11:04:48 INFO  : ----------------XSDB Script (After Launch)----------------
targets -set -nocase -filter {name =~ "ARM*#0" && jtag_cable_name =~ "Digilent Zybo 210279786951A"} -index 0
con
----------------End of Script----------------

11:04:48 INFO  : Launch script is exported to file '/home/ciro/Documents/Universidad/Semestre9/DDA/microprocesador/SOC/SOC.sdk/.sdk/launch_scripts/xilinx_c-c++_application_(system_debugger)/system_debugger_using_debug_hello.elf_on_local.tcl'
11:05:33 INFO  : 'targets -set -filter {jtag_cable_name =~ "Digilent Zybo 210279786951A" && level==0} -index 1' command is executed.
11:05:33 INFO  : 'fpga -state' command is executed.
11:05:33 INFO  : Connected to target on host '127.0.0.1' and port '3121'.
11:05:33 INFO  : Jtag cable 'Digilent Zybo 210279786951A' is selected.
11:05:33 INFO  : 'jtag frequency' command is executed.
11:05:33 INFO  : Sourcing of '/home/ciro/Documents/Universidad/Semestre9/DDA/microprocesador/SOC/SOC.sdk/design_1_wrapper_hw_platform_0/ps7_init.tcl' is done.
11:05:33 INFO  : Context for 'APU' is selected.
11:05:33 INFO  : Hardware design information is loaded from '/home/ciro/Documents/Universidad/Semestre9/DDA/microprocesador/SOC/SOC.sdk/design_1_wrapper_hw_platform_0/system.hdf'.
11:05:33 INFO  : 'configparams force-mem-access 1' command is executed.
11:05:33 INFO  : Context for 'APU' is selected.
11:05:33 INFO  : 'stop' command is executed.
11:05:33 INFO  : 'ps7_init' command is executed.
11:05:33 INFO  : 'ps7_post_config' command is executed.
11:05:33 INFO  : Context for processor 'ps7_cortexa9_0' is selected.
11:05:33 INFO  : Processor reset is completed for 'ps7_cortexa9_0'.
11:05:33 INFO  : Context for processor 'ps7_cortexa9_0' is selected.
11:05:33 INFO  : The application '/home/ciro/Documents/Universidad/Semestre9/DDA/microprocesador/SOC/SOC.sdk/hello/Debug/hello.elf' is downloaded to processor 'ps7_cortexa9_0'.
11:05:33 INFO  : 'configparams force-mem-access 0' command is executed.
11:05:33 INFO  : ----------------XSDB Script----------------
connect -url tcp:127.0.0.1:3121
source /home/ciro/Documents/Universidad/Semestre9/DDA/microprocesador/SOC/SOC.sdk/design_1_wrapper_hw_platform_0/ps7_init.tcl
targets -set -nocase -filter {name =~"APU*" && jtag_cable_name =~ "Digilent Zybo 210279786951A"} -index 0
loadhw -hw /home/ciro/Documents/Universidad/Semestre9/DDA/microprocesador/SOC/SOC.sdk/design_1_wrapper_hw_platform_0/system.hdf -mem-ranges [list {0x40000000 0xbfffffff}]
configparams force-mem-access 1
targets -set -nocase -filter {name =~"APU*" && jtag_cable_name =~ "Digilent Zybo 210279786951A"} -index 0
stop
ps7_init
ps7_post_config
targets -set -nocase -filter {name =~ "ARM*#0" && jtag_cable_name =~ "Digilent Zybo 210279786951A"} -index 0
rst -processor
targets -set -nocase -filter {name =~ "ARM*#0" && jtag_cable_name =~ "Digilent Zybo 210279786951A"} -index 0
dow /home/ciro/Documents/Universidad/Semestre9/DDA/microprocesador/SOC/SOC.sdk/hello/Debug/hello.elf
configparams force-mem-access 0
----------------End of Script----------------

11:05:33 INFO  : Context for processor 'ps7_cortexa9_0' is selected.
11:05:33 INFO  : 'con' command is executed.
11:05:33 INFO  : ----------------XSDB Script (After Launch)----------------
targets -set -nocase -filter {name =~ "ARM*#0" && jtag_cable_name =~ "Digilent Zybo 210279786951A"} -index 0
con
----------------End of Script----------------

11:05:33 INFO  : Disconnected from the channel tcfchan#4.
11:07:29 INFO  : 'targets -set -filter {jtag_cable_name =~ "Digilent Zybo 210279786951A" && level==0} -index 1' command is executed.
11:07:29 INFO  : 'fpga -state' command is executed.
11:07:29 INFO  : Connected to target on host '127.0.0.1' and port '3121'.
11:07:29 INFO  : Jtag cable 'Digilent Zybo 210279786951A' is selected.
11:07:29 INFO  : 'jtag frequency' command is executed.
11:07:29 INFO  : Sourcing of '/home/ciro/Documents/Universidad/Semestre9/DDA/microprocesador/SOC/SOC.sdk/design_1_wrapper_hw_platform_0/ps7_init.tcl' is done.
11:07:30 INFO  : Context for 'APU' is selected.
11:07:30 INFO  : Hardware design information is loaded from '/home/ciro/Documents/Universidad/Semestre9/DDA/microprocesador/SOC/SOC.sdk/design_1_wrapper_hw_platform_0/system.hdf'.
11:07:30 INFO  : 'configparams force-mem-access 1' command is executed.
11:07:30 INFO  : Context for 'APU' is selected.
11:07:30 INFO  : 'stop' command is executed.
11:07:30 INFO  : 'ps7_init' command is executed.
11:07:30 INFO  : 'ps7_post_config' command is executed.
11:07:30 INFO  : Context for processor 'ps7_cortexa9_0' is selected.
11:07:30 INFO  : Processor reset is completed for 'ps7_cortexa9_0'.
11:07:30 INFO  : Context for processor 'ps7_cortexa9_0' is selected.
11:07:30 INFO  : The application '/home/ciro/Documents/Universidad/Semestre9/DDA/microprocesador/SOC/SOC.sdk/hello/Debug/hello.elf' is downloaded to processor 'ps7_cortexa9_0'.
11:07:30 INFO  : 'configparams force-mem-access 0' command is executed.
11:07:30 INFO  : ----------------XSDB Script----------------
connect -url tcp:127.0.0.1:3121
source /home/ciro/Documents/Universidad/Semestre9/DDA/microprocesador/SOC/SOC.sdk/design_1_wrapper_hw_platform_0/ps7_init.tcl
targets -set -nocase -filter {name =~"APU*" && jtag_cable_name =~ "Digilent Zybo 210279786951A"} -index 0
loadhw -hw /home/ciro/Documents/Universidad/Semestre9/DDA/microprocesador/SOC/SOC.sdk/design_1_wrapper_hw_platform_0/system.hdf -mem-ranges [list {0x40000000 0xbfffffff}]
configparams force-mem-access 1
targets -set -nocase -filter {name =~"APU*" && jtag_cable_name =~ "Digilent Zybo 210279786951A"} -index 0
stop
ps7_init
ps7_post_config
targets -set -nocase -filter {name =~ "ARM*#0" && jtag_cable_name =~ "Digilent Zybo 210279786951A"} -index 0
rst -processor
targets -set -nocase -filter {name =~ "ARM*#0" && jtag_cable_name =~ "Digilent Zybo 210279786951A"} -index 0
dow /home/ciro/Documents/Universidad/Semestre9/DDA/microprocesador/SOC/SOC.sdk/hello/Debug/hello.elf
configparams force-mem-access 0
----------------End of Script----------------

11:07:30 INFO  : Context for processor 'ps7_cortexa9_0' is selected.
11:07:30 INFO  : 'con' command is executed.
11:07:30 INFO  : ----------------XSDB Script (After Launch)----------------
targets -set -nocase -filter {name =~ "ARM*#0" && jtag_cable_name =~ "Digilent Zybo 210279786951A"} -index 0
con
----------------End of Script----------------

11:07:30 INFO  : Disconnected from the channel tcfchan#5.
11:08:55 INFO  : 'targets -set -filter {jtag_cable_name =~ "Digilent Zybo 210279786951A" && level==0} -index 1' command is executed.
11:08:55 INFO  : 'fpga -state' command is executed.
11:08:55 INFO  : Connected to target on host '127.0.0.1' and port '3121'.
11:08:56 INFO  : Jtag cable 'Digilent Zybo 210279786951A' is selected.
11:08:56 INFO  : 'jtag frequency' command is executed.
11:08:56 INFO  : Sourcing of '/home/ciro/Documents/Universidad/Semestre9/DDA/microprocesador/SOC/SOC.sdk/design_1_wrapper_hw_platform_0/ps7_init.tcl' is done.
11:08:56 INFO  : Context for 'APU' is selected.
11:08:56 INFO  : Hardware design information is loaded from '/home/ciro/Documents/Universidad/Semestre9/DDA/microprocesador/SOC/SOC.sdk/design_1_wrapper_hw_platform_0/system.hdf'.
11:08:56 INFO  : 'configparams force-mem-access 1' command is executed.
11:08:56 INFO  : Context for 'APU' is selected.
11:08:56 INFO  : 'stop' command is executed.
11:08:58 INFO  : 'ps7_init' command is executed.
11:08:58 INFO  : 'ps7_post_config' command is executed.
11:08:58 INFO  : Context for processor 'ps7_cortexa9_0' is selected.
11:08:58 INFO  : Processor reset is completed for 'ps7_cortexa9_0'.
11:08:58 INFO  : Context for processor 'ps7_cortexa9_0' is selected.
11:09:00 ERROR : Memory write error at 0x100000. AP transaction timeout
11:09:00 INFO  : ----------------XSDB Script----------------
connect -url tcp:127.0.0.1:3121
source /home/ciro/Documents/Universidad/Semestre9/DDA/microprocesador/SOC/SOC.sdk/design_1_wrapper_hw_platform_0/ps7_init.tcl
targets -set -nocase -filter {name =~"APU*" && jtag_cable_name =~ "Digilent Zybo 210279786951A"} -index 0
loadhw -hw /home/ciro/Documents/Universidad/Semestre9/DDA/microprocesador/SOC/SOC.sdk/design_1_wrapper_hw_platform_0/system.hdf -mem-ranges [list {0x40000000 0xbfffffff}]
configparams force-mem-access 1
targets -set -nocase -filter {name =~"APU*" && jtag_cable_name =~ "Digilent Zybo 210279786951A"} -index 0
stop
ps7_init
ps7_post_config
targets -set -nocase -filter {name =~ "ARM*#0" && jtag_cable_name =~ "Digilent Zybo 210279786951A"} -index 0
rst -processor
targets -set -nocase -filter {name =~ "ARM*#0" && jtag_cable_name =~ "Digilent Zybo 210279786951A"} -index 0
dow /home/ciro/Documents/Universidad/Semestre9/DDA/microprocesador/SOC/SOC.sdk/hello/Debug/hello.elf
----------------End of Script----------------

11:09:09 INFO  : 'targets -set -filter {jtag_cable_name =~ "Digilent Zybo 210279786951A" && level==0} -index 1' command is executed.
11:09:09 INFO  : 'fpga -state' command is executed.
11:09:09 INFO  : Connected to target on host '127.0.0.1' and port '3121'.
11:09:09 INFO  : Jtag cable 'Digilent Zybo 210279786951A' is selected.
11:09:09 INFO  : 'jtag frequency' command is executed.
11:09:09 INFO  : Sourcing of '/home/ciro/Documents/Universidad/Semestre9/DDA/microprocesador/SOC/SOC.sdk/design_1_wrapper_hw_platform_0/ps7_init.tcl' is done.
11:09:09 INFO  : Context for 'APU' is selected.
11:09:09 INFO  : Hardware design information is loaded from '/home/ciro/Documents/Universidad/Semestre9/DDA/microprocesador/SOC/SOC.sdk/design_1_wrapper_hw_platform_0/system.hdf'.
11:09:09 INFO  : 'configparams force-mem-access 1' command is executed.
11:09:09 INFO  : Context for 'APU' is selected.
11:09:09 INFO  : 'stop' command is executed.
11:09:09 ERROR : AP transaction error, DAP status f0000021
11:09:09 INFO  : ----------------XSDB Script----------------
connect -url tcp:127.0.0.1:3121
source /home/ciro/Documents/Universidad/Semestre9/DDA/microprocesador/SOC/SOC.sdk/design_1_wrapper_hw_platform_0/ps7_init.tcl
targets -set -nocase -filter {name =~"APU*" && jtag_cable_name =~ "Digilent Zybo 210279786951A"} -index 0
loadhw -hw /home/ciro/Documents/Universidad/Semestre9/DDA/microprocesador/SOC/SOC.sdk/design_1_wrapper_hw_platform_0/system.hdf -mem-ranges [list {0x40000000 0xbfffffff}]
configparams force-mem-access 1
targets -set -nocase -filter {name =~"APU*" && jtag_cable_name =~ "Digilent Zybo 210279786951A"} -index 0
stop
ps7_init
----------------End of Script----------------

11:09:23 INFO  : 'targets -set -filter {jtag_cable_name =~ "Digilent Zybo 210279786951A" && level==0} -index 1' command is executed.
11:09:23 INFO  : 'fpga -state' command is executed.
11:09:23 INFO  : Connected to target on host '127.0.0.1' and port '3121'.
11:09:23 INFO  : Jtag cable 'Digilent Zybo 210279786951A' is selected.
11:09:23 INFO  : 'jtag frequency' command is executed.
11:09:23 INFO  : Sourcing of '/home/ciro/Documents/Universidad/Semestre9/DDA/microprocesador/SOC/SOC.sdk/design_1_wrapper_hw_platform_0/ps7_init.tcl' is done.
11:09:23 INFO  : Context for 'APU' is selected.
11:09:23 INFO  : Hardware design information is loaded from '/home/ciro/Documents/Universidad/Semestre9/DDA/microprocesador/SOC/SOC.sdk/design_1_wrapper_hw_platform_0/system.hdf'.
11:09:23 INFO  : 'configparams force-mem-access 1' command is executed.
11:09:23 INFO  : Context for 'APU' is selected.
11:09:23 INFO  : 'stop' command is executed.
11:09:23 ERROR : AP transaction error, DAP status f0000021
11:09:23 INFO  : ----------------XSDB Script----------------
connect -url tcp:127.0.0.1:3121
source /home/ciro/Documents/Universidad/Semestre9/DDA/microprocesador/SOC/SOC.sdk/design_1_wrapper_hw_platform_0/ps7_init.tcl
targets -set -nocase -filter {name =~"APU*" && jtag_cable_name =~ "Digilent Zybo 210279786951A"} -index 0
loadhw -hw /home/ciro/Documents/Universidad/Semestre9/DDA/microprocesador/SOC/SOC.sdk/design_1_wrapper_hw_platform_0/system.hdf -mem-ranges [list {0x40000000 0xbfffffff}]
configparams force-mem-access 1
targets -set -nocase -filter {name =~"APU*" && jtag_cable_name =~ "Digilent Zybo 210279786951A"} -index 0
stop
ps7_init
----------------End of Script----------------

11:09:33 INFO  : Connected to target on host '127.0.0.1' and port '3121'.
11:09:33 INFO  : 'targets -set -filter {jtag_cable_name =~ "Digilent Zybo 210279786951A" && level==0} -index 1' command is executed.
11:09:36 ERROR : fpga configuration failed. DONE PIN is not HIGH
11:09:46 WARN  : channel "tcfchan#4" closed
11:10:01 INFO  : Registering command handlers for SDK TCF services
11:10:02 INFO  : Launching XSCT server: xsct -n -interactive /home/ciro/Documents/Universidad/Semestre9/DDA/microprocesador/SOC/SOC.sdk/temp_xsdb_launch_script.tcl
11:10:05 INFO  : XSCT server has started successfully.
11:10:05 INFO  : Successfully done setting XSCT server connection channel  
11:10:05 INFO  : Successfully done setting SDK workspace  
11:10:05 INFO  : Processing command line option -hwspec /home/ciro/Documents/Universidad/Semestre9/DDA/microprocesador/SOC/SOC.sdk/design_1_wrapper.hdf.
11:10:05 INFO  : Checking for hwspec changes in the project design_1_wrapper_hw_platform_0.
11:10:10 INFO  : Connected to target on host '127.0.0.1' and port '3121'.
11:10:11 INFO  : 'targets -set -filter {jtag_cable_name =~ "Digilent Zybo 210279786951A" && level==0} -index 1' command is executed.
11:10:12 INFO  : FPGA configured successfully with bitstream "/home/ciro/Documents/Universidad/Semestre9/DDA/microprocesador/SOC/SOC.sdk/design_1_wrapper_hw_platform_0/design_1_wrapper.bit"
11:10:27 INFO  : 'targets -set -filter {jtag_cable_name =~ "Digilent Zybo 210279786951A" && level==0} -index 1' command is executed.
11:10:27 INFO  : 'fpga -state' command is executed.
11:10:27 INFO  : Connected to target on host '127.0.0.1' and port '3121'.
11:10:27 INFO  : Jtag cable 'Digilent Zybo 210279786951A' is selected.
11:10:27 INFO  : 'jtag frequency' command is executed.
11:10:27 INFO  : Sourcing of '/home/ciro/Documents/Universidad/Semestre9/DDA/microprocesador/SOC/SOC.sdk/design_1_wrapper_hw_platform_0/ps7_init.tcl' is done.
11:10:30 ERROR : no targets found with "name =~"APU*" && jtag_cable_name =~ "Digilent Zybo 210279786951A"". available targets:
  1  DAP (JTAG port open error. AP transaction error, DAP status 30000021)
  2* xc7z010
11:10:30 INFO  : ----------------XSDB Script----------------
connect -url tcp:127.0.0.1:3121
source /home/ciro/Documents/Universidad/Semestre9/DDA/microprocesador/SOC/SOC.sdk/design_1_wrapper_hw_platform_0/ps7_init.tcl
targets -set -nocase -filter {name =~"APU*" && jtag_cable_name =~ "Digilent Zybo 210279786951A"} -index 0
----------------End of Script----------------

11:11:02 INFO  : 'targets -set -filter {jtag_cable_name =~ "Digilent Zybo 210279786951A" && level==0} -index 1' command is executed.
11:11:02 INFO  : 'fpga -state' command is executed.
11:11:02 INFO  : Connected to target on host '127.0.0.1' and port '3121'.
11:11:02 INFO  : Jtag cable 'Digilent Zybo 210279786951A' is selected.
11:11:02 INFO  : 'jtag frequency' command is executed.
11:11:02 INFO  : Sourcing of '/home/ciro/Documents/Universidad/Semestre9/DDA/microprocesador/SOC/SOC.sdk/design_1_wrapper_hw_platform_0/ps7_init.tcl' is done.
11:11:05 ERROR : no targets found with "name =~"APU*" && jtag_cable_name =~ "Digilent Zybo 210279786951A"". available targets:
  1  DAP (JTAG port open error. AP transaction error, DAP status 30000021)
  2* xc7z010
11:11:05 INFO  : ----------------XSDB Script----------------
connect -url tcp:127.0.0.1:3121
source /home/ciro/Documents/Universidad/Semestre9/DDA/microprocesador/SOC/SOC.sdk/design_1_wrapper_hw_platform_0/ps7_init.tcl
targets -set -nocase -filter {name =~"APU*" && jtag_cable_name =~ "Digilent Zybo 210279786951A"} -index 0
----------------End of Script----------------

11:11:30 INFO  : Connected to target on host '127.0.0.1' and port '3121'.
11:11:31 INFO  : 'targets -set -filter {jtag_cable_name =~ "Digilent Zybo 210279786951A" && level==0} -index 1' command is executed.
11:11:32 INFO  : FPGA configured successfully with bitstream "/home/ciro/Documents/Universidad/Semestre9/DDA/microprocesador/SOC/SOC.sdk/design_1_wrapper_hw_platform_0/design_1_wrapper.bit"
11:12:13 INFO  : 'targets -set -filter {jtag_cable_name =~ "Digilent Zybo 210279786951A" && level==0} -index 1' command is executed.
11:12:13 INFO  : 'fpga -state' command is executed.
11:12:13 INFO  : Connected to target on host '127.0.0.1' and port '3121'.
11:12:13 INFO  : Jtag cable 'Digilent Zybo 210279786951A' is selected.
11:12:13 INFO  : 'jtag frequency' command is executed.
11:12:13 INFO  : Sourcing of '/home/ciro/Documents/Universidad/Semestre9/DDA/microprocesador/SOC/SOC.sdk/design_1_wrapper_hw_platform_0/ps7_init.tcl' is done.
11:12:13 INFO  : Context for 'APU' is selected.
11:12:13 INFO  : Hardware design information is loaded from '/home/ciro/Documents/Universidad/Semestre9/DDA/microprocesador/SOC/SOC.sdk/design_1_wrapper_hw_platform_0/system.hdf'.
11:12:13 INFO  : 'configparams force-mem-access 1' command is executed.
11:12:13 INFO  : Context for 'APU' is selected.
11:12:13 INFO  : 'stop' command is executed.
11:12:14 INFO  : 'ps7_init' command is executed.
11:12:14 INFO  : 'ps7_post_config' command is executed.
11:12:14 INFO  : Context for processor 'ps7_cortexa9_0' is selected.
11:12:14 INFO  : Processor reset is completed for 'ps7_cortexa9_0'.
11:12:14 INFO  : Context for processor 'ps7_cortexa9_0' is selected.
11:12:14 INFO  : The application '/home/ciro/Documents/Universidad/Semestre9/DDA/microprocesador/SOC/SOC.sdk/hello/Debug/hello.elf' is downloaded to processor 'ps7_cortexa9_0'.
11:12:14 INFO  : 'configparams force-mem-access 0' command is executed.
11:12:14 INFO  : ----------------XSDB Script----------------
connect -url tcp:127.0.0.1:3121
source /home/ciro/Documents/Universidad/Semestre9/DDA/microprocesador/SOC/SOC.sdk/design_1_wrapper_hw_platform_0/ps7_init.tcl
targets -set -nocase -filter {name =~"APU*" && jtag_cable_name =~ "Digilent Zybo 210279786951A"} -index 0
loadhw -hw /home/ciro/Documents/Universidad/Semestre9/DDA/microprocesador/SOC/SOC.sdk/design_1_wrapper_hw_platform_0/system.hdf -mem-ranges [list {0x40000000 0xbfffffff}]
configparams force-mem-access 1
targets -set -nocase -filter {name =~"APU*" && jtag_cable_name =~ "Digilent Zybo 210279786951A"} -index 0
stop
ps7_init
ps7_post_config
targets -set -nocase -filter {name =~ "ARM*#0" && jtag_cable_name =~ "Digilent Zybo 210279786951A"} -index 0
rst -processor
targets -set -nocase -filter {name =~ "ARM*#0" && jtag_cable_name =~ "Digilent Zybo 210279786951A"} -index 0
dow /home/ciro/Documents/Universidad/Semestre9/DDA/microprocesador/SOC/SOC.sdk/hello/Debug/hello.elf
configparams force-mem-access 0
----------------End of Script----------------

11:12:14 INFO  : Context for processor 'ps7_cortexa9_0' is selected.
11:12:14 INFO  : 'con' command is executed.
11:12:14 INFO  : ----------------XSDB Script (After Launch)----------------
targets -set -nocase -filter {name =~ "ARM*#0" && jtag_cable_name =~ "Digilent Zybo 210279786951A"} -index 0
con
----------------End of Script----------------

11:12:14 INFO  : Disconnected from the channel tcfchan#1.
11:15:38 INFO  : 'targets -set -filter {jtag_cable_name =~ "Digilent Zybo 210279786951A" && level==0} -index 1' command is executed.
11:15:38 INFO  : 'fpga -state' command is executed.
11:15:38 INFO  : Connected to target on host '127.0.0.1' and port '3121'.
11:15:38 INFO  : Jtag cable 'Digilent Zybo 210279786951A' is selected.
11:15:38 INFO  : 'jtag frequency' command is executed.
11:15:38 INFO  : Sourcing of '/home/ciro/Documents/Universidad/Semestre9/DDA/microprocesador/SOC/SOC.sdk/design_1_wrapper_hw_platform_0/ps7_init.tcl' is done.
11:15:39 INFO  : Context for 'APU' is selected.
11:15:39 INFO  : Hardware design information is loaded from '/home/ciro/Documents/Universidad/Semestre9/DDA/microprocesador/SOC/SOC.sdk/design_1_wrapper_hw_platform_0/system.hdf'.
11:15:39 INFO  : 'configparams force-mem-access 1' command is executed.
11:15:39 INFO  : Context for 'APU' is selected.
11:15:39 INFO  : 'stop' command is executed.
11:15:39 INFO  : 'ps7_init' command is executed.
11:15:39 INFO  : 'ps7_post_config' command is executed.
11:15:39 INFO  : Context for processor 'ps7_cortexa9_0' is selected.
11:15:39 INFO  : Processor reset is completed for 'ps7_cortexa9_0'.
11:15:39 INFO  : Context for processor 'ps7_cortexa9_0' is selected.
11:15:39 INFO  : The application '/home/ciro/Documents/Universidad/Semestre9/DDA/microprocesador/SOC/SOC.sdk/hello/Debug/hello.elf' is downloaded to processor 'ps7_cortexa9_0'.
11:15:39 INFO  : 'configparams force-mem-access 0' command is executed.
11:15:39 INFO  : ----------------XSDB Script----------------
connect -url tcp:127.0.0.1:3121
source /home/ciro/Documents/Universidad/Semestre9/DDA/microprocesador/SOC/SOC.sdk/design_1_wrapper_hw_platform_0/ps7_init.tcl
targets -set -nocase -filter {name =~"APU*" && jtag_cable_name =~ "Digilent Zybo 210279786951A"} -index 0
loadhw -hw /home/ciro/Documents/Universidad/Semestre9/DDA/microprocesador/SOC/SOC.sdk/design_1_wrapper_hw_platform_0/system.hdf -mem-ranges [list {0x40000000 0xbfffffff}]
configparams force-mem-access 1
targets -set -nocase -filter {name =~"APU*" && jtag_cable_name =~ "Digilent Zybo 210279786951A"} -index 0
stop
ps7_init
ps7_post_config
targets -set -nocase -filter {name =~ "ARM*#0" && jtag_cable_name =~ "Digilent Zybo 210279786951A"} -index 0
rst -processor
targets -set -nocase -filter {name =~ "ARM*#0" && jtag_cable_name =~ "Digilent Zybo 210279786951A"} -index 0
dow /home/ciro/Documents/Universidad/Semestre9/DDA/microprocesador/SOC/SOC.sdk/hello/Debug/hello.elf
configparams force-mem-access 0
----------------End of Script----------------

11:15:39 INFO  : Context for processor 'ps7_cortexa9_0' is selected.
11:15:39 INFO  : 'con' command is executed.
11:15:39 INFO  : ----------------XSDB Script (After Launch)----------------
targets -set -nocase -filter {name =~ "ARM*#0" && jtag_cable_name =~ "Digilent Zybo 210279786951A"} -index 0
con
----------------End of Script----------------

11:15:39 INFO  : Disconnected from the channel tcfchan#2.
11:18:50 INFO  : 'targets -set -filter {jtag_cable_name =~ "Digilent Zybo 210279786951A" && level==0} -index 1' command is executed.
11:18:50 INFO  : 'fpga -state' command is executed.
11:18:50 INFO  : Connected to target on host '127.0.0.1' and port '3121'.
11:18:50 INFO  : Jtag cable 'Digilent Zybo 210279786951A' is selected.
11:18:50 INFO  : 'jtag frequency' command is executed.
11:18:50 INFO  : Sourcing of '/home/ciro/Documents/Universidad/Semestre9/DDA/microprocesador/SOC/SOC.sdk/design_1_wrapper_hw_platform_0/ps7_init.tcl' is done.
11:18:50 INFO  : Context for 'APU' is selected.
11:18:50 INFO  : Hardware design information is loaded from '/home/ciro/Documents/Universidad/Semestre9/DDA/microprocesador/SOC/SOC.sdk/design_1_wrapper_hw_platform_0/system.hdf'.
11:18:50 INFO  : 'configparams force-mem-access 1' command is executed.
11:18:50 INFO  : Context for 'APU' is selected.
11:18:50 INFO  : 'stop' command is executed.
11:18:50 INFO  : 'ps7_init' command is executed.
11:18:50 INFO  : 'ps7_post_config' command is executed.
11:18:50 INFO  : Context for processor 'ps7_cortexa9_0' is selected.
11:18:50 INFO  : Processor reset is completed for 'ps7_cortexa9_0'.
11:18:51 INFO  : Context for processor 'ps7_cortexa9_0' is selected.
11:18:51 INFO  : The application '/home/ciro/Documents/Universidad/Semestre9/DDA/microprocesador/SOC/SOC.sdk/hello/Debug/hello.elf' is downloaded to processor 'ps7_cortexa9_0'.
11:18:51 INFO  : 'configparams force-mem-access 0' command is executed.
11:18:51 INFO  : ----------------XSDB Script----------------
connect -url tcp:127.0.0.1:3121
source /home/ciro/Documents/Universidad/Semestre9/DDA/microprocesador/SOC/SOC.sdk/design_1_wrapper_hw_platform_0/ps7_init.tcl
targets -set -nocase -filter {name =~"APU*" && jtag_cable_name =~ "Digilent Zybo 210279786951A"} -index 0
loadhw -hw /home/ciro/Documents/Universidad/Semestre9/DDA/microprocesador/SOC/SOC.sdk/design_1_wrapper_hw_platform_0/system.hdf -mem-ranges [list {0x40000000 0xbfffffff}]
configparams force-mem-access 1
targets -set -nocase -filter {name =~"APU*" && jtag_cable_name =~ "Digilent Zybo 210279786951A"} -index 0
stop
ps7_init
ps7_post_config
targets -set -nocase -filter {name =~ "ARM*#0" && jtag_cable_name =~ "Digilent Zybo 210279786951A"} -index 0
rst -processor
targets -set -nocase -filter {name =~ "ARM*#0" && jtag_cable_name =~ "Digilent Zybo 210279786951A"} -index 0
dow /home/ciro/Documents/Universidad/Semestre9/DDA/microprocesador/SOC/SOC.sdk/hello/Debug/hello.elf
configparams force-mem-access 0
----------------End of Script----------------

11:18:51 INFO  : Context for processor 'ps7_cortexa9_0' is selected.
11:18:51 INFO  : 'con' command is executed.
11:18:51 INFO  : ----------------XSDB Script (After Launch)----------------
targets -set -nocase -filter {name =~ "ARM*#0" && jtag_cable_name =~ "Digilent Zybo 210279786951A"} -index 0
con
----------------End of Script----------------

11:18:51 INFO  : Disconnected from the channel tcfchan#3.
11:19:45 INFO  : 'targets -set -filter {jtag_cable_name =~ "Digilent Zybo 210279786951A" && level==0} -index 1' command is executed.
11:19:45 INFO  : 'fpga -state' command is executed.
11:19:45 INFO  : Connected to target on host '127.0.0.1' and port '3121'.
11:19:45 INFO  : Jtag cable 'Digilent Zybo 210279786951A' is selected.
11:19:45 INFO  : 'jtag frequency' command is executed.
11:19:45 INFO  : Sourcing of '/home/ciro/Documents/Universidad/Semestre9/DDA/microprocesador/SOC/SOC.sdk/design_1_wrapper_hw_platform_0/ps7_init.tcl' is done.
11:19:45 INFO  : Context for 'APU' is selected.
11:19:45 INFO  : Hardware design information is loaded from '/home/ciro/Documents/Universidad/Semestre9/DDA/microprocesador/SOC/SOC.sdk/design_1_wrapper_hw_platform_0/system.hdf'.
11:19:45 INFO  : 'configparams force-mem-access 1' command is executed.
11:19:45 INFO  : Context for 'APU' is selected.
11:19:45 INFO  : 'stop' command is executed.
11:19:45 INFO  : 'ps7_init' command is executed.
11:19:45 INFO  : 'ps7_post_config' command is executed.
11:19:45 INFO  : Context for processor 'ps7_cortexa9_0' is selected.
11:19:45 INFO  : Processor reset is completed for 'ps7_cortexa9_0'.
11:19:45 INFO  : Context for processor 'ps7_cortexa9_0' is selected.
11:19:46 INFO  : The application '/home/ciro/Documents/Universidad/Semestre9/DDA/microprocesador/SOC/SOC.sdk/hello/Debug/hello.elf' is downloaded to processor 'ps7_cortexa9_0'.
11:19:46 INFO  : 'configparams force-mem-access 0' command is executed.
11:19:46 INFO  : ----------------XSDB Script----------------
connect -url tcp:127.0.0.1:3121
source /home/ciro/Documents/Universidad/Semestre9/DDA/microprocesador/SOC/SOC.sdk/design_1_wrapper_hw_platform_0/ps7_init.tcl
targets -set -nocase -filter {name =~"APU*" && jtag_cable_name =~ "Digilent Zybo 210279786951A"} -index 0
loadhw -hw /home/ciro/Documents/Universidad/Semestre9/DDA/microprocesador/SOC/SOC.sdk/design_1_wrapper_hw_platform_0/system.hdf -mem-ranges [list {0x40000000 0xbfffffff}]
configparams force-mem-access 1
targets -set -nocase -filter {name =~"APU*" && jtag_cable_name =~ "Digilent Zybo 210279786951A"} -index 0
stop
ps7_init
ps7_post_config
targets -set -nocase -filter {name =~ "ARM*#0" && jtag_cable_name =~ "Digilent Zybo 210279786951A"} -index 0
rst -processor
targets -set -nocase -filter {name =~ "ARM*#0" && jtag_cable_name =~ "Digilent Zybo 210279786951A"} -index 0
dow /home/ciro/Documents/Universidad/Semestre9/DDA/microprocesador/SOC/SOC.sdk/hello/Debug/hello.elf
configparams force-mem-access 0
----------------End of Script----------------

11:19:46 INFO  : Context for processor 'ps7_cortexa9_0' is selected.
11:19:46 INFO  : 'con' command is executed.
11:19:46 INFO  : ----------------XSDB Script (After Launch)----------------
targets -set -nocase -filter {name =~ "ARM*#0" && jtag_cable_name =~ "Digilent Zybo 210279786951A"} -index 0
con
----------------End of Script----------------

11:19:46 INFO  : Disconnected from the channel tcfchan#4.
11:20:19 INFO  : 'targets -set -filter {jtag_cable_name =~ "Digilent Zybo 210279786951A" && level==0} -index 1' command is executed.
11:20:19 INFO  : 'fpga -state' command is executed.
11:20:19 INFO  : Connected to target on host '127.0.0.1' and port '3121'.
11:20:20 INFO  : Jtag cable 'Digilent Zybo 210279786951A' is selected.
11:20:20 INFO  : 'jtag frequency' command is executed.
11:20:20 INFO  : Sourcing of '/home/ciro/Documents/Universidad/Semestre9/DDA/microprocesador/SOC/SOC.sdk/design_1_wrapper_hw_platform_0/ps7_init.tcl' is done.
11:20:20 INFO  : Context for 'APU' is selected.
11:20:20 INFO  : Hardware design information is loaded from '/home/ciro/Documents/Universidad/Semestre9/DDA/microprocesador/SOC/SOC.sdk/design_1_wrapper_hw_platform_0/system.hdf'.
11:20:20 INFO  : 'configparams force-mem-access 1' command is executed.
11:20:20 INFO  : Context for 'APU' is selected.
11:20:20 INFO  : 'stop' command is executed.
11:20:20 INFO  : 'ps7_init' command is executed.
11:20:20 INFO  : 'ps7_post_config' command is executed.
11:20:20 INFO  : Context for processor 'ps7_cortexa9_0' is selected.
11:20:20 INFO  : Processor reset is completed for 'ps7_cortexa9_0'.
11:20:20 INFO  : Context for processor 'ps7_cortexa9_0' is selected.
11:20:20 INFO  : The application '/home/ciro/Documents/Universidad/Semestre9/DDA/microprocesador/SOC/SOC.sdk/hello/Debug/hello.elf' is downloaded to processor 'ps7_cortexa9_0'.
11:20:20 INFO  : 'configparams force-mem-access 0' command is executed.
11:20:20 INFO  : ----------------XSDB Script----------------
connect -url tcp:127.0.0.1:3121
source /home/ciro/Documents/Universidad/Semestre9/DDA/microprocesador/SOC/SOC.sdk/design_1_wrapper_hw_platform_0/ps7_init.tcl
targets -set -nocase -filter {name =~"APU*" && jtag_cable_name =~ "Digilent Zybo 210279786951A"} -index 0
loadhw -hw /home/ciro/Documents/Universidad/Semestre9/DDA/microprocesador/SOC/SOC.sdk/design_1_wrapper_hw_platform_0/system.hdf -mem-ranges [list {0x40000000 0xbfffffff}]
configparams force-mem-access 1
targets -set -nocase -filter {name =~"APU*" && jtag_cable_name =~ "Digilent Zybo 210279786951A"} -index 0
stop
ps7_init
ps7_post_config
targets -set -nocase -filter {name =~ "ARM*#0" && jtag_cable_name =~ "Digilent Zybo 210279786951A"} -index 0
rst -processor
targets -set -nocase -filter {name =~ "ARM*#0" && jtag_cable_name =~ "Digilent Zybo 210279786951A"} -index 0
dow /home/ciro/Documents/Universidad/Semestre9/DDA/microprocesador/SOC/SOC.sdk/hello/Debug/hello.elf
configparams force-mem-access 0
----------------End of Script----------------

11:20:20 INFO  : Context for processor 'ps7_cortexa9_0' is selected.
11:20:20 INFO  : 'con' command is executed.
11:20:20 INFO  : ----------------XSDB Script (After Launch)----------------
targets -set -nocase -filter {name =~ "ARM*#0" && jtag_cable_name =~ "Digilent Zybo 210279786951A"} -index 0
con
----------------End of Script----------------

11:20:20 INFO  : Disconnected from the channel tcfchan#5.
11:23:44 INFO  : Connected to target on host '127.0.0.1' and port '3121'.
11:23:45 INFO  : 'targets -set -filter {jtag_cable_name =~ "Digilent Zybo 210279786951A" && level==0} -index 1' command is executed.
11:23:46 INFO  : FPGA configured successfully with bitstream "/home/ciro/Documents/Universidad/Semestre9/DDA/microprocesador/SOC/SOC.sdk/design_1_wrapper_hw_platform_0/design_1_wrapper.bit"
11:24:12 INFO  : 'targets -set -filter {jtag_cable_name =~ "Digilent Zybo 210279786951A" && level==0} -index 1' command is executed.
11:24:12 INFO  : 'fpga -state' command is executed.
11:24:12 INFO  : Connected to target on host '127.0.0.1' and port '3121'.
11:24:12 INFO  : Jtag cable 'Digilent Zybo 210279786951A' is selected.
11:24:12 INFO  : 'jtag frequency' command is executed.
11:24:12 INFO  : Sourcing of '/home/ciro/Documents/Universidad/Semestre9/DDA/microprocesador/SOC/SOC.sdk/design_1_wrapper_hw_platform_0/ps7_init.tcl' is done.
11:24:12 INFO  : Context for 'APU' is selected.
11:24:12 INFO  : Hardware design information is loaded from '/home/ciro/Documents/Universidad/Semestre9/DDA/microprocesador/SOC/SOC.sdk/design_1_wrapper_hw_platform_0/system.hdf'.
11:24:12 INFO  : 'configparams force-mem-access 1' command is executed.
11:24:12 INFO  : Context for 'APU' is selected.
11:24:12 INFO  : 'stop' command is executed.
11:24:12 INFO  : 'ps7_init' command is executed.
11:24:12 INFO  : 'ps7_post_config' command is executed.
11:24:12 INFO  : Context for processor 'ps7_cortexa9_0' is selected.
11:24:12 INFO  : Processor reset is completed for 'ps7_cortexa9_0'.
11:24:12 INFO  : Context for processor 'ps7_cortexa9_0' is selected.
11:24:12 INFO  : The application '/home/ciro/Documents/Universidad/Semestre9/DDA/microprocesador/SOC/SOC.sdk/hello/Debug/hello.elf' is downloaded to processor 'ps7_cortexa9_0'.
11:24:12 INFO  : 'configparams force-mem-access 0' command is executed.
11:24:12 INFO  : ----------------XSDB Script----------------
connect -url tcp:127.0.0.1:3121
source /home/ciro/Documents/Universidad/Semestre9/DDA/microprocesador/SOC/SOC.sdk/design_1_wrapper_hw_platform_0/ps7_init.tcl
targets -set -nocase -filter {name =~"APU*" && jtag_cable_name =~ "Digilent Zybo 210279786951A"} -index 0
loadhw -hw /home/ciro/Documents/Universidad/Semestre9/DDA/microprocesador/SOC/SOC.sdk/design_1_wrapper_hw_platform_0/system.hdf -mem-ranges [list {0x40000000 0xbfffffff}]
configparams force-mem-access 1
targets -set -nocase -filter {name =~"APU*" && jtag_cable_name =~ "Digilent Zybo 210279786951A"} -index 0
stop
ps7_init
ps7_post_config
targets -set -nocase -filter {name =~ "ARM*#0" && jtag_cable_name =~ "Digilent Zybo 210279786951A"} -index 0
rst -processor
targets -set -nocase -filter {name =~ "ARM*#0" && jtag_cable_name =~ "Digilent Zybo 210279786951A"} -index 0
dow /home/ciro/Documents/Universidad/Semestre9/DDA/microprocesador/SOC/SOC.sdk/hello/Debug/hello.elf
configparams force-mem-access 0
----------------End of Script----------------

11:24:12 INFO  : Context for processor 'ps7_cortexa9_0' is selected.
11:24:13 INFO  : 'con' command is executed.
11:24:13 INFO  : ----------------XSDB Script (After Launch)----------------
targets -set -nocase -filter {name =~ "ARM*#0" && jtag_cable_name =~ "Digilent Zybo 210279786951A"} -index 0
con
----------------End of Script----------------

11:24:13 INFO  : Disconnected from the channel tcfchan#6.
11:24:52 INFO  : 'targets -set -filter {jtag_cable_name =~ "Digilent Zybo 210279786951A" && level==0} -index 1' command is executed.
11:24:52 INFO  : 'fpga -state' command is executed.
11:24:52 INFO  : Connected to target on host '127.0.0.1' and port '3121'.
11:24:52 INFO  : Jtag cable 'Digilent Zybo 210279786951A' is selected.
11:24:52 INFO  : 'jtag frequency' command is executed.
11:24:52 INFO  : Sourcing of '/home/ciro/Documents/Universidad/Semestre9/DDA/microprocesador/SOC/SOC.sdk/design_1_wrapper_hw_platform_0/ps7_init.tcl' is done.
11:24:52 INFO  : Context for 'APU' is selected.
11:24:52 INFO  : Hardware design information is loaded from '/home/ciro/Documents/Universidad/Semestre9/DDA/microprocesador/SOC/SOC.sdk/design_1_wrapper_hw_platform_0/system.hdf'.
11:24:52 INFO  : 'configparams force-mem-access 1' command is executed.
11:24:53 INFO  : Context for 'APU' is selected.
11:24:53 INFO  : 'stop' command is executed.
11:24:55 ERROR : Memory write error at 0xE0001034. AP transaction timeout
11:24:55 INFO  : ----------------XSDB Script----------------
connect -url tcp:127.0.0.1:3121
source /home/ciro/Documents/Universidad/Semestre9/DDA/microprocesador/SOC/SOC.sdk/design_1_wrapper_hw_platform_0/ps7_init.tcl
targets -set -nocase -filter {name =~"APU*" && jtag_cable_name =~ "Digilent Zybo 210279786951A"} -index 0
loadhw -hw /home/ciro/Documents/Universidad/Semestre9/DDA/microprocesador/SOC/SOC.sdk/design_1_wrapper_hw_platform_0/system.hdf -mem-ranges [list {0x40000000 0xbfffffff}]
configparams force-mem-access 1
targets -set -nocase -filter {name =~"APU*" && jtag_cable_name =~ "Digilent Zybo 210279786951A"} -index 0
stop
ps7_init
----------------End of Script----------------

11:25:03 INFO  : 'targets -set -filter {jtag_cable_name =~ "Digilent Zybo 210279786951A" && level==0} -index 1' command is executed.
11:25:03 INFO  : 'fpga -state' command is executed.
11:25:03 INFO  : Connected to target on host '127.0.0.1' and port '3121'.
11:25:03 INFO  : Jtag cable 'Digilent Zybo 210279786951A' is selected.
11:25:03 INFO  : 'jtag frequency' command is executed.
11:25:03 INFO  : Sourcing of '/home/ciro/Documents/Universidad/Semestre9/DDA/microprocesador/SOC/SOC.sdk/design_1_wrapper_hw_platform_0/ps7_init.tcl' is done.
11:25:03 INFO  : Context for 'APU' is selected.
11:25:03 INFO  : Hardware design information is loaded from '/home/ciro/Documents/Universidad/Semestre9/DDA/microprocesador/SOC/SOC.sdk/design_1_wrapper_hw_platform_0/system.hdf'.
11:25:03 INFO  : 'configparams force-mem-access 1' command is executed.
11:25:03 INFO  : Context for 'APU' is selected.
11:25:04 INFO  : 'stop' command is executed.
11:25:04 ERROR : Memory read error at 0xF8007080. AHB AP transaction error, DAP status f0000021
11:25:04 INFO  : ----------------XSDB Script----------------
connect -url tcp:127.0.0.1:3121
source /home/ciro/Documents/Universidad/Semestre9/DDA/microprocesador/SOC/SOC.sdk/design_1_wrapper_hw_platform_0/ps7_init.tcl
targets -set -nocase -filter {name =~"APU*" && jtag_cable_name =~ "Digilent Zybo 210279786951A"} -index 0
loadhw -hw /home/ciro/Documents/Universidad/Semestre9/DDA/microprocesador/SOC/SOC.sdk/design_1_wrapper_hw_platform_0/system.hdf -mem-ranges [list {0x40000000 0xbfffffff}]
configparams force-mem-access 1
targets -set -nocase -filter {name =~"APU*" && jtag_cable_name =~ "Digilent Zybo 210279786951A"} -index 0
stop
ps7_init
----------------End of Script----------------

11:26:51 INFO  : Registering command handlers for SDK TCF services
11:26:52 INFO  : Launching XSCT server: xsct -n -interactive /home/ciro/Documents/Universidad/Semestre9/DDA/microprocesador/SOC/SOC.sdk/temp_xsdb_launch_script.tcl
11:26:55 INFO  : XSCT server has started successfully.
11:26:56 INFO  : Successfully done setting XSCT server connection channel  
11:26:56 INFO  : Successfully done setting SDK workspace  
11:26:56 INFO  : Processing command line option -hwspec /home/ciro/Documents/Universidad/Semestre9/DDA/microprocesador/SOC/SOC.sdk/design_1_wrapper.hdf.
11:26:56 INFO  : Checking for hwspec changes in the project design_1_wrapper_hw_platform_0.
11:27:50 INFO  : Connected to target on host '127.0.0.1' and port '3121'.
11:27:51 INFO  : 'targets -set -filter {jtag_cable_name =~ "Digilent Zybo 210279786951A" && level==0} -index 1' command is executed.
11:27:52 INFO  : FPGA configured successfully with bitstream "/home/ciro/Documents/Universidad/Semestre9/DDA/microprocesador/SOC/SOC.sdk/design_1_wrapper_hw_platform_0/design_1_wrapper.bit"
11:27:58 INFO  : 'targets -set -filter {jtag_cable_name =~ "Digilent Zybo 210279786951A" && level==0} -index 1' command is executed.
11:27:58 INFO  : 'fpga -state' command is executed.
11:27:58 INFO  : Connected to target on host '127.0.0.1' and port '3121'.
11:27:58 INFO  : Jtag cable 'Digilent Zybo 210279786951A' is selected.
11:27:58 INFO  : 'jtag frequency' command is executed.
11:27:58 INFO  : Sourcing of '/home/ciro/Documents/Universidad/Semestre9/DDA/microprocesador/SOC/SOC.sdk/design_1_wrapper_hw_platform_0/ps7_init.tcl' is done.
11:27:58 INFO  : Context for 'APU' is selected.
11:27:58 INFO  : Hardware design information is loaded from '/home/ciro/Documents/Universidad/Semestre9/DDA/microprocesador/SOC/SOC.sdk/design_1_wrapper_hw_platform_0/system.hdf'.
11:27:58 INFO  : 'configparams force-mem-access 1' command is executed.
11:27:58 INFO  : Context for 'APU' is selected.
11:27:58 INFO  : 'stop' command is executed.
11:27:59 INFO  : 'ps7_init' command is executed.
11:27:59 INFO  : 'ps7_post_config' command is executed.
11:27:59 INFO  : Context for processor 'ps7_cortexa9_0' is selected.
11:27:59 INFO  : Processor reset is completed for 'ps7_cortexa9_0'.
11:27:59 INFO  : Context for processor 'ps7_cortexa9_0' is selected.
11:27:59 INFO  : The application '/home/ciro/Documents/Universidad/Semestre9/DDA/microprocesador/SOC/SOC.sdk/fslb/Debug/fslb.elf' is downloaded to processor 'ps7_cortexa9_0'.
11:27:59 INFO  : 'configparams force-mem-access 0' command is executed.
11:27:59 INFO  : ----------------XSDB Script----------------
connect -url tcp:127.0.0.1:3121
source /home/ciro/Documents/Universidad/Semestre9/DDA/microprocesador/SOC/SOC.sdk/design_1_wrapper_hw_platform_0/ps7_init.tcl
targets -set -nocase -filter {name =~"APU*" && jtag_cable_name =~ "Digilent Zybo 210279786951A"} -index 0
loadhw -hw /home/ciro/Documents/Universidad/Semestre9/DDA/microprocesador/SOC/SOC.sdk/design_1_wrapper_hw_platform_0/system.hdf -mem-ranges [list {0x40000000 0xbfffffff}]
configparams force-mem-access 1
targets -set -nocase -filter {name =~"APU*" && jtag_cable_name =~ "Digilent Zybo 210279786951A"} -index 0
stop
ps7_init
ps7_post_config
targets -set -nocase -filter {name =~ "ARM*#0" && jtag_cable_name =~ "Digilent Zybo 210279786951A"} -index 0
rst -processor
targets -set -nocase -filter {name =~ "ARM*#0" && jtag_cable_name =~ "Digilent Zybo 210279786951A"} -index 0
dow /home/ciro/Documents/Universidad/Semestre9/DDA/microprocesador/SOC/SOC.sdk/fslb/Debug/fslb.elf
configparams force-mem-access 0
----------------End of Script----------------

11:27:59 INFO  : Context for processor 'ps7_cortexa9_0' is selected.
11:27:59 INFO  : 'con' command is executed.
11:27:59 INFO  : ----------------XSDB Script (After Launch)----------------
targets -set -nocase -filter {name =~ "ARM*#0" && jtag_cable_name =~ "Digilent Zybo 210279786951A"} -index 0
con
----------------End of Script----------------

11:27:59 INFO  : Disconnected from the channel tcfchan#1.
11:28:36 INFO  : 'targets -set -filter {jtag_cable_name =~ "Digilent Zybo 210279786951A" && level==0} -index 1' command is executed.
11:28:36 INFO  : 'fpga -state' command is executed.
11:28:36 INFO  : Connected to target on host '127.0.0.1' and port '3121'.
11:28:36 INFO  : Jtag cable 'Digilent Zybo 210279786951A' is selected.
11:28:36 INFO  : 'jtag frequency' command is executed.
11:28:36 INFO  : Sourcing of '/home/ciro/Documents/Universidad/Semestre9/DDA/microprocesador/SOC/SOC.sdk/design_1_wrapper_hw_platform_0/ps7_init.tcl' is done.
11:28:36 INFO  : Context for 'APU' is selected.
11:28:36 INFO  : Hardware design information is loaded from '/home/ciro/Documents/Universidad/Semestre9/DDA/microprocesador/SOC/SOC.sdk/design_1_wrapper_hw_platform_0/system.hdf'.
11:28:36 INFO  : 'configparams force-mem-access 1' command is executed.
11:28:36 INFO  : Context for 'APU' is selected.
11:28:36 INFO  : 'stop' command is executed.
11:28:36 ERROR : Memory read error at 0xF8007080. AHB AP transaction error, DAP status f0000021
11:28:36 INFO  : ----------------XSDB Script----------------
connect -url tcp:127.0.0.1:3121
source /home/ciro/Documents/Universidad/Semestre9/DDA/microprocesador/SOC/SOC.sdk/design_1_wrapper_hw_platform_0/ps7_init.tcl
targets -set -nocase -filter {name =~"APU*" && jtag_cable_name =~ "Digilent Zybo 210279786951A"} -index 0
loadhw -hw /home/ciro/Documents/Universidad/Semestre9/DDA/microprocesador/SOC/SOC.sdk/design_1_wrapper_hw_platform_0/system.hdf -mem-ranges [list {0x40000000 0xbfffffff}]
configparams force-mem-access 1
targets -set -nocase -filter {name =~"APU*" && jtag_cable_name =~ "Digilent Zybo 210279786951A"} -index 0
stop
ps7_init
----------------End of Script----------------

11:28:43 INFO  : Connected to target on host '127.0.0.1' and port '3121'.
11:28:43 INFO  : 'targets -set -filter {jtag_cable_name =~ "Digilent Zybo 210279786951A" && level==0} -index 1' command is executed.
11:28:45 ERROR : fpga configuration failed. DONE PIN is not HIGH
11:28:50 INFO  : Connected to target on host '127.0.0.1' and port '3121'.
11:28:50 INFO  : 'targets -set -filter {jtag_cable_name =~ "Digilent Zybo 210279786951A" && level==0} -index 1' command is executed.
11:28:52 ERROR : fpga configuration failed. DONE PIN is not HIGH
11:28:59 INFO  : Connected to target on host '127.0.0.1' and port '3121'.
11:28:59 INFO  : 'targets -set -filter {jtag_cable_name =~ "Digilent Zybo 210279786951A" && level==0} -index 1' command is executed.
11:29:00 INFO  : FPGA configured successfully with bitstream "/home/ciro/Documents/Universidad/Semestre9/DDA/microprocesador/SOC/SOC.sdk/design_1_wrapper_hw_platform_0/design_1_wrapper.bit"
11:29:11 INFO  : 'targets -set -filter {jtag_cable_name =~ "Digilent Zybo 210279786951A" && level==0} -index 1' command is executed.
11:29:11 INFO  : 'fpga -state' command is executed.
11:29:11 INFO  : Connected to target on host '127.0.0.1' and port '3121'.
11:29:11 INFO  : Jtag cable 'Digilent Zybo 210279786951A' is selected.
11:29:11 INFO  : 'jtag frequency' command is executed.
11:29:11 INFO  : Sourcing of '/home/ciro/Documents/Universidad/Semestre9/DDA/microprocesador/SOC/SOC.sdk/design_1_wrapper_hw_platform_0/ps7_init.tcl' is done.
11:29:11 INFO  : Context for 'APU' is selected.
11:29:11 INFO  : Hardware design information is loaded from '/home/ciro/Documents/Universidad/Semestre9/DDA/microprocesador/SOC/SOC.sdk/design_1_wrapper_hw_platform_0/system.hdf'.
11:29:11 INFO  : 'configparams force-mem-access 1' command is executed.
11:29:11 INFO  : Context for 'APU' is selected.
11:29:12 INFO  : 'stop' command is executed.
11:29:12 INFO  : 'ps7_init' command is executed.
11:29:12 INFO  : 'ps7_post_config' command is executed.
11:29:12 INFO  : Context for processor 'ps7_cortexa9_0' is selected.
11:29:12 INFO  : Processor reset is completed for 'ps7_cortexa9_0'.
11:29:12 INFO  : Context for processor 'ps7_cortexa9_0' is selected.
11:29:12 INFO  : The application '/home/ciro/Documents/Universidad/Semestre9/DDA/microprocesador/SOC/SOC.sdk/hello/Debug/hello.elf' is downloaded to processor 'ps7_cortexa9_0'.
11:29:12 INFO  : 'configparams force-mem-access 0' command is executed.
11:29:12 INFO  : ----------------XSDB Script----------------
connect -url tcp:127.0.0.1:3121
source /home/ciro/Documents/Universidad/Semestre9/DDA/microprocesador/SOC/SOC.sdk/design_1_wrapper_hw_platform_0/ps7_init.tcl
targets -set -nocase -filter {name =~"APU*" && jtag_cable_name =~ "Digilent Zybo 210279786951A"} -index 0
loadhw -hw /home/ciro/Documents/Universidad/Semestre9/DDA/microprocesador/SOC/SOC.sdk/design_1_wrapper_hw_platform_0/system.hdf -mem-ranges [list {0x40000000 0xbfffffff}]
configparams force-mem-access 1
targets -set -nocase -filter {name =~"APU*" && jtag_cable_name =~ "Digilent Zybo 210279786951A"} -index 0
stop
ps7_init
ps7_post_config
targets -set -nocase -filter {name =~ "ARM*#0" && jtag_cable_name =~ "Digilent Zybo 210279786951A"} -index 0
rst -processor
targets -set -nocase -filter {name =~ "ARM*#0" && jtag_cable_name =~ "Digilent Zybo 210279786951A"} -index 0
dow /home/ciro/Documents/Universidad/Semestre9/DDA/microprocesador/SOC/SOC.sdk/hello/Debug/hello.elf
configparams force-mem-access 0
----------------End of Script----------------

11:29:12 INFO  : Context for processor 'ps7_cortexa9_0' is selected.
11:29:12 INFO  : 'con' command is executed.
11:29:12 INFO  : ----------------XSDB Script (After Launch)----------------
targets -set -nocase -filter {name =~ "ARM*#0" && jtag_cable_name =~ "Digilent Zybo 210279786951A"} -index 0
con
----------------End of Script----------------

11:29:12 INFO  : Disconnected from the channel tcfchan#2.
11:29:40 INFO  : 'targets -set -filter {jtag_cable_name =~ "Digilent Zybo 210279786951A" && level==0} -index 1' command is executed.
11:29:40 INFO  : 'fpga -state' command is executed.
11:29:40 INFO  : Connected to target on host '127.0.0.1' and port '3121'.
11:29:40 INFO  : Jtag cable 'Digilent Zybo 210279786951A' is selected.
11:29:40 INFO  : 'jtag frequency' command is executed.
11:29:40 INFO  : Sourcing of '/home/ciro/Documents/Universidad/Semestre9/DDA/microprocesador/SOC/SOC.sdk/design_1_wrapper_hw_platform_0/ps7_init.tcl' is done.
11:29:40 INFO  : Context for 'APU' is selected.
11:29:41 INFO  : Hardware design information is loaded from '/home/ciro/Documents/Universidad/Semestre9/DDA/microprocesador/SOC/SOC.sdk/design_1_wrapper_hw_platform_0/system.hdf'.
11:29:41 INFO  : 'configparams force-mem-access 1' command is executed.
11:29:41 INFO  : Context for 'APU' is selected.
11:29:41 INFO  : 'stop' command is executed.
11:29:41 ERROR : Memory read error at 0xF8007080. AHB AP transaction error, DAP status f0000021
11:29:41 INFO  : ----------------XSDB Script----------------
connect -url tcp:127.0.0.1:3121
source /home/ciro/Documents/Universidad/Semestre9/DDA/microprocesador/SOC/SOC.sdk/design_1_wrapper_hw_platform_0/ps7_init.tcl
targets -set -nocase -filter {name =~"APU*" && jtag_cable_name =~ "Digilent Zybo 210279786951A"} -index 0
loadhw -hw /home/ciro/Documents/Universidad/Semestre9/DDA/microprocesador/SOC/SOC.sdk/design_1_wrapper_hw_platform_0/system.hdf -mem-ranges [list {0x40000000 0xbfffffff}]
configparams force-mem-access 1
targets -set -nocase -filter {name =~"APU*" && jtag_cable_name =~ "Digilent Zybo 210279786951A"} -index 0
stop
ps7_init
----------------End of Script----------------

11:37:55 INFO  : Registering command handlers for SDK TCF services
11:37:57 INFO  : Launching XSCT server: xsct -n -interactive /home/ciro/Documents/Universidad/Semestre9/DDA/microprocesador/SOC/SOC.sdk/temp_xsdb_launch_script.tcl
11:38:00 INFO  : XSCT server has started successfully.
11:38:00 INFO  : Successfully done setting XSCT server connection channel  
11:38:00 INFO  : Successfully done setting SDK workspace  
11:38:00 INFO  : Processing command line option -hwspec /home/ciro/Documents/Universidad/Semestre9/DDA/microprocesador/SOC/SOC.sdk/design_1_wrapper.hdf.
11:38:00 INFO  : Checking for hwspec changes in the project design_1_wrapper_hw_platform_0.
11:38:02 INFO  : SDK has detected change in the last modified timestamps for source hardware specification file Source:1574613429000,  Project:1574610930000
11:38:02 INFO  : The hardware specification for project 'design_1_wrapper_hw_platform_0' is different from /home/ciro/Documents/Universidad/Semestre9/DDA/microprocesador/SOC/SOC.sdk/design_1_wrapper.hdf.
11:38:03 INFO  : Copied contents of /home/ciro/Documents/Universidad/Semestre9/DDA/microprocesador/SOC/SOC.sdk/design_1_wrapper.hdf into /design_1_wrapper_hw_platform_0/system.hdf.
11:38:05 INFO  : Synchronizing projects in the workspace with the hardware platform specification changes.
11:38:06 INFO  : 
11:38:07 INFO  : 
11:38:08 INFO  : Updating hardware inferred compiler options for fslb.
11:38:09 INFO  : Updating hardware inferred compiler options for hello.
11:38:09 INFO  : Clearing existing target manager status.
11:38:09 INFO  : Workspace synchronized with the new hardware specification file. Cleaning dependent projects...
11:38:10 WARN  : Linker script will not be updated automatically. Users need to update it manually.
11:38:37 INFO  : Connected to target on host '127.0.0.1' and port '3121'.
11:38:38 INFO  : 'targets -set -filter {jtag_cable_name =~ "Digilent Zybo 210279786951A" && level==0} -index 1' command is executed.
11:38:39 INFO  : FPGA configured successfully with bitstream "/home/ciro/Documents/Universidad/Semestre9/DDA/microprocesador/SOC/SOC.sdk/design_1_wrapper_hw_platform_0/design_1_wrapper.bit"
11:39:16 INFO  : 'targets -set -filter {jtag_cable_name =~ "Digilent Zybo 210279786951A" && level==0} -index 1' command is executed.
11:39:16 INFO  : 'fpga -state' command is executed.
11:39:16 INFO  : Connected to target on host '127.0.0.1' and port '3121'.
11:39:16 INFO  : Jtag cable 'Digilent Zybo 210279786951A' is selected.
11:39:16 INFO  : 'jtag frequency' command is executed.
11:39:16 INFO  : Sourcing of '/home/ciro/Documents/Universidad/Semestre9/DDA/microprocesador/SOC/SOC.sdk/design_1_wrapper_hw_platform_0/ps7_init.tcl' is done.
11:39:16 INFO  : Context for 'APU' is selected.
11:39:16 INFO  : Hardware design information is loaded from '/home/ciro/Documents/Universidad/Semestre9/DDA/microprocesador/SOC/SOC.sdk/design_1_wrapper_hw_platform_0/system.hdf'.
11:39:16 INFO  : 'configparams force-mem-access 1' command is executed.
11:39:16 INFO  : Context for 'APU' is selected.
11:39:17 INFO  : 'stop' command is executed.
11:39:17 INFO  : 'ps7_init' command is executed.
11:39:17 INFO  : 'ps7_post_config' command is executed.
11:39:17 INFO  : Context for processor 'ps7_cortexa9_0' is selected.
11:39:17 INFO  : Processor reset is completed for 'ps7_cortexa9_0'.
11:39:17 INFO  : Context for processor 'ps7_cortexa9_0' is selected.
11:39:17 INFO  : The application '/home/ciro/Documents/Universidad/Semestre9/DDA/microprocesador/SOC/SOC.sdk/hello/Debug/hello.elf' is downloaded to processor 'ps7_cortexa9_0'.
11:39:17 INFO  : 'configparams force-mem-access 0' command is executed.
11:39:17 INFO  : ----------------XSDB Script----------------
connect -url tcp:127.0.0.1:3121
source /home/ciro/Documents/Universidad/Semestre9/DDA/microprocesador/SOC/SOC.sdk/design_1_wrapper_hw_platform_0/ps7_init.tcl
targets -set -nocase -filter {name =~"APU*" && jtag_cable_name =~ "Digilent Zybo 210279786951A"} -index 0
loadhw -hw /home/ciro/Documents/Universidad/Semestre9/DDA/microprocesador/SOC/SOC.sdk/design_1_wrapper_hw_platform_0/system.hdf -mem-ranges [list {0x40000000 0xbfffffff}]
configparams force-mem-access 1
targets -set -nocase -filter {name =~"APU*" && jtag_cable_name =~ "Digilent Zybo 210279786951A"} -index 0
stop
ps7_init
ps7_post_config
targets -set -nocase -filter {name =~ "ARM*#0" && jtag_cable_name =~ "Digilent Zybo 210279786951A"} -index 0
rst -processor
targets -set -nocase -filter {name =~ "ARM*#0" && jtag_cable_name =~ "Digilent Zybo 210279786951A"} -index 0
dow /home/ciro/Documents/Universidad/Semestre9/DDA/microprocesador/SOC/SOC.sdk/hello/Debug/hello.elf
configparams force-mem-access 0
----------------End of Script----------------

11:39:17 INFO  : Context for processor 'ps7_cortexa9_0' is selected.
11:39:17 INFO  : 'con' command is executed.
11:39:17 INFO  : ----------------XSDB Script (After Launch)----------------
targets -set -nocase -filter {name =~ "ARM*#0" && jtag_cable_name =~ "Digilent Zybo 210279786951A"} -index 0
con
----------------End of Script----------------

11:39:17 INFO  : Disconnected from the channel tcfchan#1.
11:39:34 INFO  : 'targets -set -filter {jtag_cable_name =~ "Digilent Zybo 210279786951A" && level==0} -index 1' command is executed.
11:39:34 INFO  : 'fpga -state' command is executed.
11:39:34 INFO  : Connected to target on host '127.0.0.1' and port '3121'.
11:39:34 INFO  : Jtag cable 'Digilent Zybo 210279786951A' is selected.
11:39:34 INFO  : 'jtag frequency' command is executed.
11:39:34 INFO  : Sourcing of '/home/ciro/Documents/Universidad/Semestre9/DDA/microprocesador/SOC/SOC.sdk/design_1_wrapper_hw_platform_0/ps7_init.tcl' is done.
11:39:34 INFO  : Context for 'APU' is selected.
11:39:34 INFO  : Hardware design information is loaded from '/home/ciro/Documents/Universidad/Semestre9/DDA/microprocesador/SOC/SOC.sdk/design_1_wrapper_hw_platform_0/system.hdf'.
11:39:34 INFO  : 'configparams force-mem-access 1' command is executed.
11:39:34 INFO  : Context for 'APU' is selected.
11:39:34 INFO  : 'stop' command is executed.
11:39:36 ERROR : Memory write error at 0xE0000034. AP transaction timeout
11:39:36 INFO  : ----------------XSDB Script----------------
connect -url tcp:127.0.0.1:3121
source /home/ciro/Documents/Universidad/Semestre9/DDA/microprocesador/SOC/SOC.sdk/design_1_wrapper_hw_platform_0/ps7_init.tcl
targets -set -nocase -filter {name =~"APU*" && jtag_cable_name =~ "Digilent Zybo 210279786951A"} -index 0
loadhw -hw /home/ciro/Documents/Universidad/Semestre9/DDA/microprocesador/SOC/SOC.sdk/design_1_wrapper_hw_platform_0/system.hdf -mem-ranges [list {0x40000000 0xbfffffff}]
configparams force-mem-access 1
targets -set -nocase -filter {name =~"APU*" && jtag_cable_name =~ "Digilent Zybo 210279786951A"} -index 0
stop
ps7_init
----------------End of Script----------------

11:40:08 INFO  : 'targets -set -filter {jtag_cable_name =~ "Digilent Zybo 210279786951A" && level==0} -index 1' command is executed.
11:40:08 INFO  : 'fpga -state' command is executed.
11:40:08 INFO  : Connected to target on host '127.0.0.1' and port '3121'.
11:40:08 INFO  : Jtag cable 'Digilent Zybo 210279786951A' is selected.
11:40:08 INFO  : 'jtag frequency' command is executed.
11:40:08 INFO  : Sourcing of '/home/ciro/Documents/Universidad/Semestre9/DDA/microprocesador/SOC/SOC.sdk/design_1_wrapper_hw_platform_0/ps7_init.tcl' is done.
11:40:08 INFO  : Context for 'APU' is selected.
11:40:08 INFO  : Hardware design information is loaded from '/home/ciro/Documents/Universidad/Semestre9/DDA/microprocesador/SOC/SOC.sdk/design_1_wrapper_hw_platform_0/system.hdf'.
11:40:08 INFO  : 'configparams force-mem-access 1' command is executed.
11:40:08 INFO  : Context for 'APU' is selected.
11:40:09 INFO  : 'stop' command is executed.
11:40:09 ERROR : Memory read error at 0xF8007080. AHB AP transaction error, DAP status f0000021
11:40:09 INFO  : ----------------XSDB Script----------------
connect -url tcp:127.0.0.1:3121
source /home/ciro/Documents/Universidad/Semestre9/DDA/microprocesador/SOC/SOC.sdk/design_1_wrapper_hw_platform_0/ps7_init.tcl
targets -set -nocase -filter {name =~"APU*" && jtag_cable_name =~ "Digilent Zybo 210279786951A"} -index 0
loadhw -hw /home/ciro/Documents/Universidad/Semestre9/DDA/microprocesador/SOC/SOC.sdk/design_1_wrapper_hw_platform_0/system.hdf -mem-ranges [list {0x40000000 0xbfffffff}]
configparams force-mem-access 1
targets -set -nocase -filter {name =~"APU*" && jtag_cable_name =~ "Digilent Zybo 210279786951A"} -index 0
stop
ps7_init
----------------End of Script----------------

11:40:19 INFO  : 'targets -set -filter {jtag_cable_name =~ "Digilent Zybo 210279786951A" && level==0} -index 1' command is executed.
11:40:19 INFO  : 'fpga -state' command is executed.
11:40:19 INFO  : Connected to target on host '127.0.0.1' and port '3121'.
11:40:19 INFO  : Jtag cable 'Digilent Zybo 210279786951A' is selected.
11:40:19 INFO  : 'jtag frequency' command is executed.
11:40:19 INFO  : Sourcing of '/home/ciro/Documents/Universidad/Semestre9/DDA/microprocesador/SOC/SOC.sdk/design_1_wrapper_hw_platform_0/ps7_init.tcl' is done.
11:40:19 INFO  : Context for 'APU' is selected.
11:40:19 INFO  : Hardware design information is loaded from '/home/ciro/Documents/Universidad/Semestre9/DDA/microprocesador/SOC/SOC.sdk/design_1_wrapper_hw_platform_0/system.hdf'.
11:40:19 INFO  : 'configparams force-mem-access 1' command is executed.
11:40:20 INFO  : Context for 'APU' is selected.
11:40:20 INFO  : 'stop' command is executed.
11:40:20 ERROR : Memory read error at 0xF8007080. AHB AP transaction error, DAP status f0000021
11:40:20 INFO  : ----------------XSDB Script----------------
connect -url tcp:127.0.0.1:3121
source /home/ciro/Documents/Universidad/Semestre9/DDA/microprocesador/SOC/SOC.sdk/design_1_wrapper_hw_platform_0/ps7_init.tcl
targets -set -nocase -filter {name =~"APU*" && jtag_cable_name =~ "Digilent Zybo 210279786951A"} -index 0
loadhw -hw /home/ciro/Documents/Universidad/Semestre9/DDA/microprocesador/SOC/SOC.sdk/design_1_wrapper_hw_platform_0/system.hdf -mem-ranges [list {0x40000000 0xbfffffff}]
configparams force-mem-access 1
targets -set -nocase -filter {name =~"APU*" && jtag_cable_name =~ "Digilent Zybo 210279786951A"} -index 0
stop
ps7_init
----------------End of Script----------------

11:45:13 INFO  : 'targets -set -filter {jtag_cable_name =~ "Digilent Zybo 210279786951A" && level==0} -index 1' command is executed.
11:45:13 INFO  : 'fpga -state' command is executed.
11:45:13 INFO  : Connected to target on host '127.0.0.1' and port '3121'.
11:45:13 INFO  : Jtag cable 'Digilent Zybo 210279786951A' is selected.
11:45:13 INFO  : 'jtag frequency' command is executed.
11:45:13 INFO  : Sourcing of '/home/ciro/Documents/Universidad/Semestre9/DDA/microprocesador/SOC/SOC.sdk/design_1_wrapper_hw_platform_0/ps7_init.tcl' is done.
11:45:13 INFO  : Context for 'APU' is selected.
11:45:13 INFO  : Hardware design information is loaded from '/home/ciro/Documents/Universidad/Semestre9/DDA/microprocesador/SOC/SOC.sdk/design_1_wrapper_hw_platform_0/system.hdf'.
11:45:13 INFO  : 'configparams force-mem-access 1' command is executed.
11:45:13 INFO  : Context for 'APU' is selected.
11:45:13 INFO  : 'stop' command is executed.
11:45:14 ERROR : Memory read error at 0xF8007080. AHB AP transaction error, DAP status f0000021
11:45:14 INFO  : ----------------XSDB Script----------------
connect -url tcp:127.0.0.1:3121
source /home/ciro/Documents/Universidad/Semestre9/DDA/microprocesador/SOC/SOC.sdk/design_1_wrapper_hw_platform_0/ps7_init.tcl
targets -set -nocase -filter {name =~"APU*" && jtag_cable_name =~ "Digilent Zybo 210279786951A"} -index 0
loadhw -hw /home/ciro/Documents/Universidad/Semestre9/DDA/microprocesador/SOC/SOC.sdk/design_1_wrapper_hw_platform_0/system.hdf -mem-ranges [list {0x40000000 0xbfffffff}]
configparams force-mem-access 1
targets -set -nocase -filter {name =~"APU*" && jtag_cable_name =~ "Digilent Zybo 210279786951A"} -index 0
stop
ps7_init
----------------End of Script----------------

11:55:07 INFO  : Connected to target on host '127.0.0.1' and port '3121'.
11:55:07 INFO  : 'targets -set -filter {jtag_cable_name =~ "Digilent Zybo 210279786951A" && level==0} -index 1' command is executed.
11:55:08 INFO  : FPGA configured successfully with bitstream "/home/ciro/Documents/Universidad/Semestre9/DDA/microprocesador/SOC/SOC.sdk/design_1_wrapper_hw_platform_0/design_1_wrapper.bit"
11:55:39 INFO  : 'targets -set -filter {jtag_cable_name =~ "Digilent Zybo 210279786951A" && level==0} -index 1' command is executed.
11:55:39 INFO  : 'fpga -state' command is executed.
11:55:39 INFO  : Connected to target on host '127.0.0.1' and port '3121'.
11:55:39 INFO  : Jtag cable 'Digilent Zybo 210279786951A' is selected.
11:55:39 INFO  : 'jtag frequency' command is executed.
11:55:39 INFO  : Sourcing of '/home/ciro/Documents/Universidad/Semestre9/DDA/microprocesador/SOC/SOC.sdk/design_1_wrapper_hw_platform_0/ps7_init.tcl' is done.
11:55:39 INFO  : Context for 'APU' is selected.
11:55:39 INFO  : Hardware design information is loaded from '/home/ciro/Documents/Universidad/Semestre9/DDA/microprocesador/SOC/SOC.sdk/design_1_wrapper_hw_platform_0/system.hdf'.
11:55:39 INFO  : 'configparams force-mem-access 1' command is executed.
11:55:39 INFO  : Context for 'APU' is selected.
11:55:39 INFO  : 'stop' command is executed.
11:55:39 INFO  : 'ps7_init' command is executed.
11:55:39 INFO  : 'ps7_post_config' command is executed.
11:55:39 INFO  : Context for processor 'ps7_cortexa9_0' is selected.
11:55:39 INFO  : Processor reset is completed for 'ps7_cortexa9_0'.
11:55:39 INFO  : Context for processor 'ps7_cortexa9_0' is selected.
11:55:40 INFO  : The application '/home/ciro/Documents/Universidad/Semestre9/DDA/microprocesador/SOC/SOC.sdk/hello/Debug/hello.elf' is downloaded to processor 'ps7_cortexa9_0'.
11:55:40 INFO  : 'configparams force-mem-access 0' command is executed.
11:55:40 INFO  : ----------------XSDB Script----------------
connect -url tcp:127.0.0.1:3121
source /home/ciro/Documents/Universidad/Semestre9/DDA/microprocesador/SOC/SOC.sdk/design_1_wrapper_hw_platform_0/ps7_init.tcl
targets -set -nocase -filter {name =~"APU*" && jtag_cable_name =~ "Digilent Zybo 210279786951A"} -index 0
loadhw -hw /home/ciro/Documents/Universidad/Semestre9/DDA/microprocesador/SOC/SOC.sdk/design_1_wrapper_hw_platform_0/system.hdf -mem-ranges [list {0x40000000 0xbfffffff}]
configparams force-mem-access 1
targets -set -nocase -filter {name =~"APU*" && jtag_cable_name =~ "Digilent Zybo 210279786951A"} -index 0
stop
ps7_init
ps7_post_config
targets -set -nocase -filter {name =~ "ARM*#0" && jtag_cable_name =~ "Digilent Zybo 210279786951A"} -index 0
rst -processor
targets -set -nocase -filter {name =~ "ARM*#0" && jtag_cable_name =~ "Digilent Zybo 210279786951A"} -index 0
dow /home/ciro/Documents/Universidad/Semestre9/DDA/microprocesador/SOC/SOC.sdk/hello/Debug/hello.elf
configparams force-mem-access 0
----------------End of Script----------------

11:55:40 INFO  : Context for processor 'ps7_cortexa9_0' is selected.
11:55:40 INFO  : 'con' command is executed.
11:55:40 INFO  : ----------------XSDB Script (After Launch)----------------
targets -set -nocase -filter {name =~ "ARM*#0" && jtag_cable_name =~ "Digilent Zybo 210279786951A"} -index 0
con
----------------End of Script----------------

11:55:40 INFO  : Disconnected from the channel tcfchan#2.
11:56:31 INFO  : 'targets -set -filter {jtag_cable_name =~ "Digilent Zybo 210279786951A" && level==0} -index 1' command is executed.
11:56:31 INFO  : 'fpga -state' command is executed.
11:56:35 INFO  : Connected to target on host '127.0.0.1' and port '3121'.
11:56:35 INFO  : Jtag cable 'Digilent Zybo 210279786951A' is selected.
11:56:35 INFO  : 'jtag frequency' command is executed.
11:56:35 INFO  : Sourcing of '/home/ciro/Documents/Universidad/Semestre9/DDA/microprocesador/SOC/SOC.sdk/design_1_wrapper_hw_platform_0/ps7_init.tcl' is done.
11:56:35 INFO  : Context for 'APU' is selected.
11:56:35 INFO  : Hardware design information is loaded from '/home/ciro/Documents/Universidad/Semestre9/DDA/microprocesador/SOC/SOC.sdk/design_1_wrapper_hw_platform_0/system.hdf'.
11:56:35 INFO  : 'configparams force-mem-access 1' command is executed.
11:56:36 INFO  : Context for 'APU' is selected.
11:56:36 INFO  : 'stop' command is executed.
11:56:36 INFO  : 'ps7_init' command is executed.
11:56:36 INFO  : 'ps7_post_config' command is executed.
11:56:36 INFO  : Context for processor 'ps7_cortexa9_0' is selected.
11:56:36 INFO  : Processor reset is completed for 'ps7_cortexa9_0'.
11:56:36 INFO  : Context for processor 'ps7_cortexa9_0' is selected.
11:56:36 INFO  : The application '/home/ciro/Documents/Universidad/Semestre9/DDA/microprocesador/SOC/SOC.sdk/hello/Debug/hello.elf' is downloaded to processor 'ps7_cortexa9_0'.
11:56:36 INFO  : 'configparams force-mem-access 0' command is executed.
11:56:36 INFO  : ----------------XSDB Script----------------
connect -url tcp:127.0.0.1:3121
source /home/ciro/Documents/Universidad/Semestre9/DDA/microprocesador/SOC/SOC.sdk/design_1_wrapper_hw_platform_0/ps7_init.tcl
targets -set -nocase -filter {name =~"APU*" && jtag_cable_name =~ "Digilent Zybo 210279786951A"} -index 0
loadhw -hw /home/ciro/Documents/Universidad/Semestre9/DDA/microprocesador/SOC/SOC.sdk/design_1_wrapper_hw_platform_0/system.hdf -mem-ranges [list {0x40000000 0xbfffffff}]
configparams force-mem-access 1
targets -set -nocase -filter {name =~"APU*" && jtag_cable_name =~ "Digilent Zybo 210279786951A"} -index 0
stop
ps7_init
ps7_post_config
targets -set -nocase -filter {name =~ "ARM*#0" && jtag_cable_name =~ "Digilent Zybo 210279786951A"} -index 0
rst -processor
targets -set -nocase -filter {name =~ "ARM*#0" && jtag_cable_name =~ "Digilent Zybo 210279786951A"} -index 0
dow /home/ciro/Documents/Universidad/Semestre9/DDA/microprocesador/SOC/SOC.sdk/hello/Debug/hello.elf
configparams force-mem-access 0
----------------End of Script----------------

11:56:36 INFO  : Context for processor 'ps7_cortexa9_0' is selected.
11:56:36 INFO  : 'con' command is executed.
11:56:36 INFO  : ----------------XSDB Script (After Launch)----------------
targets -set -nocase -filter {name =~ "ARM*#0" && jtag_cable_name =~ "Digilent Zybo 210279786951A"} -index 0
con
----------------End of Script----------------

11:56:36 INFO  : Disconnected from the channel tcfchan#3.
11:56:46 INFO  : Connected to target on host '127.0.0.1' and port '3121'.
11:56:46 INFO  : 'targets -set -filter {jtag_cable_name =~ "Digilent Zybo 210279786951A" && level==0} -index 1' command is executed.
11:56:47 INFO  : FPGA configured successfully with bitstream "/home/ciro/Documents/Universidad/Semestre9/DDA/microprocesador/SOC/SOC.sdk/design_1_wrapper_hw_platform_0/design_1_wrapper.bit"
11:56:54 INFO  : 'targets -set -filter {jtag_cable_name =~ "Digilent Zybo 210279786951A" && level==0} -index 1' command is executed.
11:56:54 INFO  : 'fpga -state' command is executed.
11:56:54 INFO  : Connected to target on host '127.0.0.1' and port '3121'.
11:56:54 INFO  : Jtag cable 'Digilent Zybo 210279786951A' is selected.
11:56:54 INFO  : 'jtag frequency' command is executed.
11:56:54 INFO  : Sourcing of '/home/ciro/Documents/Universidad/Semestre9/DDA/microprocesador/SOC/SOC.sdk/design_1_wrapper_hw_platform_0/ps7_init.tcl' is done.
11:56:54 INFO  : Context for 'APU' is selected.
11:56:54 INFO  : Hardware design information is loaded from '/home/ciro/Documents/Universidad/Semestre9/DDA/microprocesador/SOC/SOC.sdk/design_1_wrapper_hw_platform_0/system.hdf'.
11:56:54 INFO  : 'configparams force-mem-access 1' command is executed.
11:56:54 INFO  : Context for 'APU' is selected.
11:56:54 INFO  : 'stop' command is executed.
11:56:54 INFO  : 'ps7_init' command is executed.
11:56:54 INFO  : 'ps7_post_config' command is executed.
11:56:54 INFO  : Context for processor 'ps7_cortexa9_0' is selected.
11:56:54 INFO  : Processor reset is completed for 'ps7_cortexa9_0'.
11:56:54 INFO  : Context for processor 'ps7_cortexa9_0' is selected.
11:56:54 INFO  : The application '/home/ciro/Documents/Universidad/Semestre9/DDA/microprocesador/SOC/SOC.sdk/hello/Debug/hello.elf' is downloaded to processor 'ps7_cortexa9_0'.
11:56:54 INFO  : 'configparams force-mem-access 0' command is executed.
11:56:54 INFO  : ----------------XSDB Script----------------
connect -url tcp:127.0.0.1:3121
source /home/ciro/Documents/Universidad/Semestre9/DDA/microprocesador/SOC/SOC.sdk/design_1_wrapper_hw_platform_0/ps7_init.tcl
targets -set -nocase -filter {name =~"APU*" && jtag_cable_name =~ "Digilent Zybo 210279786951A"} -index 0
loadhw -hw /home/ciro/Documents/Universidad/Semestre9/DDA/microprocesador/SOC/SOC.sdk/design_1_wrapper_hw_platform_0/system.hdf -mem-ranges [list {0x40000000 0xbfffffff}]
configparams force-mem-access 1
targets -set -nocase -filter {name =~"APU*" && jtag_cable_name =~ "Digilent Zybo 210279786951A"} -index 0
stop
ps7_init
ps7_post_config
targets -set -nocase -filter {name =~ "ARM*#0" && jtag_cable_name =~ "Digilent Zybo 210279786951A"} -index 0
rst -processor
targets -set -nocase -filter {name =~ "ARM*#0" && jtag_cable_name =~ "Digilent Zybo 210279786951A"} -index 0
dow /home/ciro/Documents/Universidad/Semestre9/DDA/microprocesador/SOC/SOC.sdk/hello/Debug/hello.elf
configparams force-mem-access 0
----------------End of Script----------------

11:56:55 INFO  : Context for processor 'ps7_cortexa9_0' is selected.
11:56:55 INFO  : 'con' command is executed.
11:56:55 INFO  : ----------------XSDB Script (After Launch)----------------
targets -set -nocase -filter {name =~ "ARM*#0" && jtag_cable_name =~ "Digilent Zybo 210279786951A"} -index 0
con
----------------End of Script----------------

11:56:55 INFO  : Disconnected from the channel tcfchan#4.
