#-----------------------------------------------------------
# Webtalk v2019.1 (64-bit)
# SW Build 2552052 on Fri May 24 14:47:09 MDT 2019
# IP Build 2548770 on Fri May 24 18:01:18 MDT 2019
# Start of session at: Sun Nov 24 16:33:12 2019
# Process ID: 112934
# Current directory: /home/ciro/Documents/Universidad/Semestre9/DDA/microprocesador/vivado2019-1_pipeline/vivado2019-1_pipeline.sim/sim_1/behav/xsim
# Command line: wbtcv -mode batch -source /home/ciro/Documents/Universidad/Semestre9/DDA/microprocesador/vivado2019-1_pipeline/vivado2019-1_pipeline.sim/sim_1/behav/xsim/xsim.dir/tb_microprocesor_behav/webtalk/xsim_webtalk.tcl -notrace
# Log file: /home/ciro/Documents/Universidad/Semestre9/DDA/microprocesador/vivado2019-1_pipeline/vivado2019-1_pipeline.sim/sim_1/behav/xsim/webtalk.log
# Journal file: /home/ciro/Documents/Universidad/Semestre9/DDA/microprocesador/vivado2019-1_pipeline/vivado2019-1_pipeline.sim/sim_1/behav/xsim/webtalk.jou
#-----------------------------------------------------------
source /home/ciro/Documents/Universidad/Semestre9/DDA/microprocesador/vivado2019-1_pipeline/vivado2019-1_pipeline.sim/sim_1/behav/xsim/xsim.dir/tb_microprocesor_behav/webtalk/xsim_webtalk.tcl -notrace
INFO: [Common 17-186] '/home/ciro/Documents/Universidad/Semestre9/DDA/microprocesador/vivado2019-1_pipeline/vivado2019-1_pipeline.sim/sim_1/behav/xsim/xsim.dir/tb_microprocesor_behav/webtalk/usage_statistics_ext_xsim.xml' has been successfully sent to Xilinx on Sun Nov 24 16:33:15 2019. For additional details about this file, please refer to the WebTalk help file at /home/ciro/vivado/Vivado/2019.1/doc/webtalk_introduction.html.
INFO: [Common 17-206] Exiting Webtalk at Sun Nov 24 16:33:15 2019...
