Vivado Simulator 2019.1
Copyright 1986-1999, 2001-2019 Xilinx, Inc. All Rights Reserved.
Running: /home/ciro/vivado/Vivado/2019.1/bin/unwrapped/lnx64.o/xelab -wto a594b0b4f9ea490b844ce54eed591a55 --incr --debug typical --relax --mt 8 -L xil_defaultlib -L unisims_ver -L unimacro_ver -L secureip --snapshot tb_cla_behav xil_defaultlib.tb_cla xil_defaultlib.glbl -log elaborate.log 
Using 8 slave threads.
Starting static elaboration
Completed static elaboration
Starting simulation data flow analysis
Completed simulation data flow analysis
Time Resolution for simulation is 1ps
Compiling module xil_defaultlib.block_x
Compiling module xil_defaultlib.block_y
Compiling module xil_defaultlib.level1
Compiling module xil_defaultlib.level2
Compiling module xil_defaultlib.level3
Compiling module xil_defaultlib.main
Compiling module xil_defaultlib.tb_cla
Compiling module xil_defaultlib.glbl
Built simulation snapshot tb_cla_behav
