# compile verilog/system verilog design source files
verilog xil_defaultlib  \
"../../../../arreglo_sistolico.srcs/sources_1/new/comp.v" \
"../../../../arreglo_sistolico.srcs/sim_1/new/tb_comp.v" \

# compile glbl module
verilog xil_defaultlib "glbl.v"

# Do not sort compile order
nosort
